<?xml version="1.0" encoding="UTF-8" standalone="no"?>
<!-- Created with Inkscape (http://www.inkscape.org/) -->

<svg
   xmlns:dc="http://purl.org/dc/elements/1.1/"
   xmlns:cc="http://creativecommons.org/ns#"
   xmlns:rdf="http://www.w3.org/1999/02/22-rdf-syntax-ns#"
   xmlns:svg="http://www.w3.org/2000/svg"
   xmlns="http://www.w3.org/2000/svg"
   xmlns:sodipodi="http://sodipodi.sourceforge.net/DTD/sodipodi-0.dtd"
   xmlns:inkscape="http://www.inkscape.org/namespaces/inkscape"
   width="251.13153mm"
   height="55.06987mm"
   viewBox="0 0 251.13154 55.069872"
   version="1.1"
   id="svg1575"
   sodipodi:docname="call-to-action.svg"
   inkscape:version="0.92.3 (2405546, 2018-03-11)">
  <defs
     id="defs1569">
    <clipPath
       clipPathUnits="userSpaceOnUse"
       id="clipPath2222">
      <rect
         style="opacity:0.725;fill:#00ff66;fill-opacity:1;stroke:none;stroke-width:0.79374999;stroke-miterlimit:4;stroke-dasharray:none;stroke-opacity:1"
         id="rect2224"
         width="213.17865"
         height="133.04768"
         x="-0.75595349"
         y="-8.4047604"
         ry="1.5119059" />
    </clipPath>
    <clipPath
       clipPathUnits="userSpaceOnUse"
       id="clipPath1682">
      <rect
         y="154.71684"
         x="-92.571098"
         height="211.1279"
         width="529.51154"
         id="rect1684"
         style="opacity:1;fill:#005544;fill-opacity:1;stroke:none;stroke-width:1.70279384;stroke-miterlimit:4;stroke-dasharray:none;stroke-opacity:1" />
    </clipPath>
    <clipPath
       clipPathUnits="userSpaceOnUse"
       id="clipPath1672">
      <rect
         y="-49.226204"
         x="-214.69048"
         height="414.26187"
         width="651.63098"
         id="rect1674"
         style="opacity:1;fill:#ff0000;fill-opacity:1;stroke:none;stroke-width:2.64600015;stroke-miterlimit:4;stroke-dasharray:none;stroke-opacity:1" />
    </clipPath>
    <clipPath
       clipPathUnits="userSpaceOnUse"
       id="clipPath1688">
      <rect
         y="-47.638702"
         x="-214.69048"
         height="414.26187"
         width="529.51154"
         id="rect1690"
         style="opacity:1;fill:#ff0000;fill-opacity:1;stroke:none;stroke-width:2.38521051;stroke-miterlimit:4;stroke-dasharray:none;stroke-opacity:1" />
    </clipPath>
  </defs>
  <sodipodi:namedview
     id="base"
     pagecolor="#ffffff"
     bordercolor="#666666"
     borderopacity="1.0"
     inkscape:pageopacity="0.0"
     inkscape:pageshadow="2"
     inkscape:zoom="0.98994949"
     inkscape:cx="492.16947"
     inkscape:cy="105.63126"
     inkscape:document-units="mm"
     inkscape:current-layer="layer1"
     showgrid="false"
     inkscape:window-width="1920"
     inkscape:window-height="1025"
     inkscape:window-x="0"
     inkscape:window-y="27"
     inkscape:window-maximized="1"
     showguides="true"
     inkscape:guide-bbox="true"
     fit-margin-top="0"
     fit-margin-left="0"
     fit-margin-right="0"
     fit-margin-bottom="0"
     inkscape:snap-global="true"
     showborder="true" />
  <metadata
     id="metadata1572">
    <rdf:RDF>
      <cc:Work
         rdf:about="">
        <dc:format>image/svg+xml</dc:format>
        <dc:type
           rdf:resource="http://purl.org/dc/dcmitype/StillImage" />
        <dc:title></dc:title>
      </cc:Work>
    </rdf:RDF>
  </metadata>
  <g
     inkscape:label="Layer 1"
     inkscape:groupmode="layer"
     id="layer1"
     transform="translate(-137.7228,-5.3012577)">
    <path
       style="fill:#000000;fill-opacity:1;stroke:none;stroke-width:0.72304702px;stroke-linecap:butt;stroke-linejoin:miter;stroke-opacity:1"
       clip-path="url(#clipPath1682)"
       d="m -2186.1211,340.35352 c -29.9335,-0.14108 -41.4023,19.20703 -41.4023,19.20703 l -43.9121,139.86523 214.2382,20.42969 1104.45707,51.86133 360.35546,-61.19336 353.91797,-30.63086 c 0,0 -13.30685,-56.86627 -47.90429,-51.25977 -34.59743,5.60649 -83.83303,-6.40782 -165.00391,-19.22265 -35.39525,-5.58802 -59.65662,-4.77683 -82.60547,-0.0293 -2.38557,-4.8835 -6.49032,-7.05058 -12.98242,-4.98633 -34.59742,11.00069 -43.82521,31.47844 -124.99609,6.33399 -65.6968,-20.35104 -133.63971,-7.90972 -213.99805,7.24804 -52.66413,-10.69081 -79.8067,-7.88979 -128.68357,2.03321 -88.6325,-22.46497 -232.7466,-32.4987 -344.9102,-11.46485 -5.3384,-1.37937 -10.8714,-2.70125 -16.6406,-3.9414 -49.0778,-10.54995 -91.1349,-4.19594 -132.209,5.92968 -27.781,-1.93211 -53.1037,3.62654 -78.0019,11.23047 -66.1058,-25.18133 -166.8679,-27.59202 -249.4786,-18.90039 -62.5352,-14.72675 -84.5546,4.14453 -84.5546,4.14453 l -7.5333,12.23047 c -0.05,0.014 -0.1024,0.027 -0.1523,0.041 -83.8322,23.57294 -106.4535,-0.002 -188.9551,-53.4336 -29.649,-19.20212 -52.2529,-25.41304 -69.0449,-25.49218 z"
       transform="matrix(0.26458333,0,0,0.26458333,72.168268,-6.2417819)"
       id="path4216"
       inkscape:connector-curvature="0" />
    <path
       inkscape:connector-curvature="0"
       style="fill:#000000;fill-opacity:1;stroke:none;stroke-width:0.60399902;stroke-miterlimit:4;stroke-dasharray:none"
       d="m 144.31323,7.4544611 c -3.65125,0 -6.59043,2.6361339 -6.59043,5.9105529 V 60.371127 H 270.01447 V 13.365014 c 0,-3.274419 -2.93951,-5.9105529 -6.59077,-5.9105529 z"
       id="rect1743" />
    <path
       inkscape:connector-curvature="0"
       style="fill:#ffffff;fill-opacity:1;stroke:none;stroke-width:0.53128392;stroke-miterlimit:4;stroke-dasharray:none"
       d="m 153.67529,11.781577 c -3.4478,0 -6.22352,2.39136 -6.22352,5.361731 V 60.063695 H 260.28516 V 17.143308 c 0,-2.970371 -2.77538,-5.361731 -6.22316,-5.361731 z"
       id="rect1745" />
    <path
       style="fill:#ff7f2a;fill-opacity:1;stroke:none;stroke-width:0.91607147;stroke-miterlimit:4;stroke-dasharray:none"
       d="m 222.66327,44.247868 c 0,3.887877 -8.6277,7.039629 -19.2705,7.039629 -10.64281,0 -19.2705,-3.151752 -19.2705,-7.039629 0,-3.887882 12.74646,-10.214979 19.05398,-10.253101 7.18073,-0.04337 19.48702,6.365219 19.48702,10.253101 z"
       id="path1765"
       inkscape:connector-curvature="0"
       sodipodi:nodetypes="sssss" />
    <ellipse
       style="fill:#000000;fill-opacity:1;stroke:none;stroke-width:0.96639836;stroke-miterlimit:4;stroke-dasharray:none"
       id="circle1767"
       cx="173.05255"
       cy="26.566462"
       rx="11.42088"
       ry="4.1721191" />
    <ellipse
       cy="26.443541"
       cx="236.31281"
       id="circle1769"
       style="fill:#000000;fill-opacity:1;stroke:none;stroke-width:0.96639836;stroke-miterlimit:4;stroke-dasharray:none"
       rx="11.42088"
       ry="4.1721191" />
    <path
       style="fill:#000000;fill-opacity:1;stroke:#000000;stroke-width:0.55156243;stroke-miterlimit:4;stroke-dasharray:none"
       d="m 161.2652,8.5441301 c -8.76542,0 -15.82214,2.4887659 -15.82214,5.5801409 v 16.885378 c 0.74779,-14.082856 16.12646,-16.102633 32.63875,-16.11286 14.04674,-0.167109 14.75192,6.730171 25.27376,6.67179 11.21878,-0.06225 12.1468,-7.226229 26.29993,-7.409139 16.52101,0.01122 33.80636,2.734244 32.63872,16.12759 V 14.124271 c 0,-3.091375 -7.05672,-5.5801409 -15.82212,-5.5801409 z"
       id="path1771"
       inkscape:connector-curvature="0"
       sodipodi:nodetypes="ssccaccsss" />
    <ellipse
       ry="4.1721191"
       rx="11.42088"
       cy="26.566462"
       cx="173.05255"
       id="ellipse3046"
       style="fill:#000000;fill-opacity:1;stroke:none;stroke-width:0.96639836;stroke-miterlimit:4;stroke-dasharray:none" />
    <ellipse
       ry="4.1721191"
       rx="11.42088"
       style="fill:#000000;fill-opacity:1;stroke:none;stroke-width:0.96639836;stroke-miterlimit:4;stroke-dasharray:none"
       id="ellipse3048"
       cx="236.31281"
       cy="26.443541" />
    <path
       style="opacity:1;fill:#a4e4e9;fill-opacity:1;stroke:#000000;stroke-width:0.582277;stroke-miterlimit:4;stroke-dasharray:none;stroke-opacity:1"
       inkscape:transform-center-x="-1.3438582"
       inkscape:transform-center-y="0.063623418"
       d="m 275.82951,42.231135 17.28182,-1.080103 -4.85234,15.513753 23.84497,-5.681344 -3.27938,7.714937 15.40291,-6.182643 10.15558,3.963019 1.48422,-6.707997 19.85707,7.092596 5.98799,-8.235081 11.74012,4.895339 0.54507,-7.661188 13.50039,-0.788211 -10.85551,-7.676311 11.67294,-9.291493 -14.4218,-7.179705 5.61573,-10.926331 -15.02591,5.197774 -6.42286,-9.1892619 -12.55893,8.8278209 -6.52852,-9.0038079 -13.01075,6.7845799 -13.41891,-6.9129419 -4.36813,10.4597289 -10.86726,-6.9669689 -0.34141,11.4008959 -17.30775,-3.340871 8.30255,15.376448 c -6.37459,3.930987 -53.09132,11.508706 -56.78133,12.434076 -3.76598,-0.05356 39.46638,-2.783144 44.64943,-2.836709 z"
       id="path4271"
       inkscape:connector-curvature="0"
       sodipodi:nodetypes="cccccccccccccccccccccccccccccc" />
  </g>
</svg>
