<?xml version="1.0" encoding="UTF-8" standalone="no"?>
<!-- Created with Inkscape (http://www.inkscape.org/) -->

<svg
   xmlns:dc="http://purl.org/dc/elements/1.1/"
   xmlns:cc="http://creativecommons.org/ns#"
   xmlns:rdf="http://www.w3.org/1999/02/22-rdf-syntax-ns#"
   xmlns:svg="http://www.w3.org/2000/svg"
   xmlns="http://www.w3.org/2000/svg"
   xmlns:sodipodi="http://sodipodi.sourceforge.net/DTD/sodipodi-0.dtd"
   xmlns:inkscape="http://www.inkscape.org/namespaces/inkscape"
   width="52.916668mm"
   height="46.4995mm"
   viewBox="0 0 52.916668 46.4995"
   version="1.1"
   id="svg1410"
   inkscape:version="0.92.3 (2405546, 2018-03-11)"
   sodipodi:docname="chute.svg">
  <defs
     id="defs1404" />
  <sodipodi:namedview
     id="base"
     pagecolor="#ffffff"
     bordercolor="#666666"
     borderopacity="1.0"
     inkscape:pageopacity="0.0"
     inkscape:pageshadow="2"
     inkscape:zoom="1"
     inkscape:cx="679"
     inkscape:cy="12.716529"
     inkscape:document-units="mm"
     inkscape:current-layer="layer1"
     showgrid="false"
     showborder="false"
     inkscape:snap-global="false"
     fit-margin-top="0"
     fit-margin-left="0"
     fit-margin-right="0"
     fit-margin-bottom="0"
     inkscape:window-width="1920"
     inkscape:window-height="1025"
     inkscape:window-x="0"
     inkscape:window-y="27"
     inkscape:window-maximized="1" />
  <metadata
     id="metadata1407">
    <rdf:RDF>
      <cc:Work
         rdf:about="">
        <dc:format>image/svg+xml</dc:format>
        <dc:type
           rdf:resource="http://purl.org/dc/dcmitype/StillImage" />
        <dc:title></dc:title>
      </cc:Work>
    </rdf:RDF>
  </metadata>
  <g
     inkscape:label="Layer 1"
     inkscape:groupmode="layer"
     id="layer1"
     transform="translate(212.24002,-387.78419)">
    <g
       id="g2206"
       transform="matrix(0.28250476,0,0,0.28250476,-152.2812,311.59648)">
      <path
         style="fill:#000000;fill-opacity:1;stroke:#000000;stroke-width:2.56064844;stroke-miterlimit:4;stroke-dasharray:none"
         d="m -143.38046,370.04369 c -5.80989,-1.72611 -15.81798,12.24675 -20.62234,28.41763 -4.80437,16.17086 -0.45359,38.16813 4.01989,34.07884 3.8525,-3.52163 7.15861,-19.38608 12.30984,-28.5888 10.66016,-19.04446 23.71678,-23.26137 17.92037,-26.92191"
         id="path1737"
         inkscape:connector-curvature="0"
         sodipodi:nodetypes="csssc" />
      <path
         sodipodi:nodetypes="csssc"
         inkscape:connector-curvature="0"
         id="path1739"
         d="m -63.019786,333.95712 c 5.83337,1.64501 15.64584,-12.46591 20.224475,-28.70215 4.57863,-16.23622 -4.494245,-34.01954 -4.494245,-34.01954 -4.97452,1.58044 -6.88785,19.48393 -11.91039,28.75751 -10.39383,19.19111 -23.39044,23.58949 -17.54359,27.16894"
         style="fill:#000000;fill-opacity:1;stroke:#000000;stroke-width:2.56064844;stroke-miterlimit:4;stroke-dasharray:none" />
      <path
         sodipodi:nodetypes="ccccc"
         inkscape:connector-curvature="0"
         id="rect1741"
         d="m -163.69343,306.83406 -24.43367,27.55136 -21.25936,-19.44508 24.43369,-27.55134 z"
         style="fill:#cccccc;fill-opacity:1;stroke:#cccccc;stroke-width:4.07196379;stroke-miterlimit:4;stroke-dasharray:none" />
      <path
         sodipodi:nodetypes="sssssssss"
         inkscape:connector-curvature="0"
         id="rect1743"
         d="m -48.697627,347.66017 -59.384303,52.66778 c -5.32649,4.72405 -12.91397,3.74561 -18.14177,-1.08743 l -61.29124,-56.66295 c -5.2278,-4.83304 -3.82913,-12.99244 1.08744,-18.14177 0,0 11.87127,-12.43328 17.80691,-18.64992 4.91657,-5.14933 11.18869,-0.44319 18.14177,1.08743 l 102.868623,22.64509 c 6.95309,1.53063 4.23906,13.41772 -1.08743,18.14177 z"
         style="fill:#000000;fill-opacity:1;stroke:#000000;stroke-width:0.79374999;stroke-miterlimit:4;stroke-dasharray:none" />
      <path
         d="m -25.31509,376.75296 a 48.957241,42.720638 0 0 1 -48.618235,42.71961 48.957241,42.720638 0 0 1 -49.291555,-42.12798 48.957241,42.720638 0 0 1 47.935594,-43.30305 48.957241,42.720638 0 0 1 49.955417,41.52828"
         sodipodi:open="true"
         sodipodi:end="6.2554869"
         sodipodi:start="0"
         sodipodi:ry="42.720638"
         sodipodi:rx="48.957241"
         sodipodi:cy="376.75296"
         sodipodi:cx="-74.272331"
         sodipodi:type="arc"
         id="path2139"
         style="opacity:1;fill:#ffffff;fill-opacity:1;stroke:#cccccc;stroke-width:0.7750988;stroke-miterlimit:4;stroke-dasharray:none;stroke-opacity:1" />
      <path
         sodipodi:nodetypes="sssss"
         inkscape:connector-curvature="0"
         id="path1765"
         d="m -39.977592,391.30637 c 3.250489,3.83966 2.772885,9.58738 -1.066776,12.83789 -3.839681,3.2505 -9.587395,2.77289 -12.837894,-1.06677 -3.250496,-3.83967 -3.941719,-13.9813 -1.69799,-15.94538 2.554358,-2.23596 12.352153,0.33459 15.60266,4.17426 z"
         style="fill:#ff7f2a;fill-opacity:1;stroke:none;stroke-width:0.71644169;stroke-miterlimit:4;stroke-dasharray:none" />
      <path
         sodipodi:nodetypes="ccccc"
         inkscape:connector-curvature="0"
         id="rect1773"
         d="m -174.2212,304.92035 -3.81676,4.30378 -10.89026,-9.96088 3.81675,-4.30379 z"
         style="fill:#000000;fill-opacity:1;stroke:#000000;stroke-width:1.15186536;stroke-miterlimit:4;stroke-dasharray:none" />
      <path
         sodipodi:nodetypes="ccccc"
         inkscape:connector-curvature="0"
         id="rect1775"
         d="m -186.55655,318.82965 -3.81677,4.30379 -10.89024,-9.96088 3.81676,-4.30378 z"
         style="fill:#000000;fill-opacity:1;stroke:#000000;stroke-width:1.15186536;stroke-miterlimit:4;stroke-dasharray:none" />
      <path
         sodipodi:nodetypes="csssc"
         inkscape:connector-curvature="0"
         id="path2126"
         d="m -84.696256,357.91024 c -9.220597,21.0785 -40.535794,14.68927 -64.114054,2.96637 -23.57827,-11.72289 -39.05918,-18.0816 -30.16512,-39.32245 8.89407,-21.24084 39.145,-17.9505 62.84644,-6.52178 23.701452,11.42872 39.998548,21.47874 31.432734,42.87786"
         style="opacity:1;fill:#ff5555;fill-opacity:1;stroke:#000000;stroke-width:0.70961642;stroke-miterlimit:4;stroke-dasharray:none;stroke-opacity:1" />
      <path
         style="opacity:1;fill:#ff8080;fill-opacity:1;stroke:#000000;stroke-width:0.54016125;stroke-miterlimit:4;stroke-dasharray:none;stroke-opacity:1"
         d="m -98.470025,344.68877 c -7.197055,15.64747 -31.639815,10.90447 -50.043585,2.20206 -18.40378,-8.70239 -30.48726,-13.42273 -23.54509,-29.19072 6.94218,-15.76799 30.55424,-13.32543 49.05416,-4.8414 18.49993,8.48403 31.220476,15.94458 24.534515,31.83006"
         id="path2136"
         inkscape:connector-curvature="0"
         sodipodi:nodetypes="csssc" />
      <path
         sodipodi:nodetypes="sssss"
         inkscape:connector-curvature="0"
         id="circle1747"
         d="m -151.48934,321.57989 c -1.237,3.02832 -4.69471,4.48045 -7.72302,3.24344 -3.0283,-1.237 -4.48044,-4.6947 -3.24344,-7.72301 1.237,-3.02831 4.69471,-4.48044 7.72303,-3.24345 3.0283,1.23701 4.48043,4.69472 3.24343,7.72302 z"
         style="fill:#000000;fill-opacity:1;stroke:#e6e6e6;stroke-width:0.11734331;stroke-miterlimit:4;stroke-dasharray:none" />
      <path
         sodipodi:nodetypes="scscs"
         inkscape:connector-curvature="0"
         id="circle1749"
         d="m -123.27768,324.85312 c -0.56991,1.39519 -2.16293,2.06421 -3.55811,1.4943 -1.39518,-0.5699 -2.0642,-2.16292 -1.49429,-3.55809 0.5699,-1.39518 2.16292,-2.06419 3.5581,-1.4943 1.39517,0.56991 2.0642,2.16292 1.4943,3.55809 z"
         style="fill:#000000;fill-opacity:1;stroke:#e6e6e6;stroke-width:0.14326337;stroke-miterlimit:4;stroke-dasharray:none" />
      <path
         sodipodi:nodetypes="ccccc"
         inkscape:connector-curvature="0"
         id="rect1751"
         d="m -128.30456,339.82975 4.04192,1.65104 -1.65105,4.04192 -4.04192,-1.65104 z"
         style="fill:#000000;fill-opacity:1;stroke:#e6e6e6;stroke-width:0.14326337;stroke-miterlimit:4;stroke-dasharray:none" />
      <path
         sodipodi:nodetypes="ccccccc"
         inkscape:connector-curvature="0"
         id="path1753"
         d="m -108.68338,339.27199 -3.76176,0.51575 -3.76176,0.51575 1.43423,-3.51566 1.43423,-3.51565 2.32753,2.99991 z"
         inkscape:transform-center-y="-0.053974916"
         inkscape:transform-center-x="-2.1694136"
         style="fill:#000000;fill-opacity:1;stroke:#e6e6e6;stroke-width:0.20903693;stroke-miterlimit:4;stroke-dasharray:none" />
      <path
         sodipodi:nodetypes="cc"
         inkscape:connector-curvature="0"
         id="path1755"
         d="m -152.23492,321.24593 38.75873,15.86279"
         style="fill:none;stroke:#000000;stroke-width:1.54152369;stroke-linecap:butt;stroke-linejoin:miter;stroke-miterlimit:4;stroke-dasharray:none;stroke-opacity:1" />
      <path
         sodipodi:nodetypes="ccc"
         style="fill:none;stroke:#000000;stroke-width:1.46682334;stroke-linecap:butt;stroke-linejoin:miter;stroke-miterlimit:4;stroke-dasharray:none;stroke-opacity:1"
         d="m -149.22096,322.63646 15.63357,-2.37869 7.40124,3.30592"
         id="path1757"
         inkscape:connector-curvature="0" />
      <path
         sodipodi:nodetypes="cssc"
         inkscape:connector-curvature="0"
         id="path1759"
         d="m -142.30839,325.31463 c 0.0188,0.0116 -0.21394,-0.1129 -0.19633,-0.0996 5.39628,4.0645 5.80406,5.41899 6.99133,9.16653 0.81722,2.57948 1.01588,5.21564 6.501,7.43599"
         style="fill:none;stroke:#000000;stroke-width:1.54152369;stroke-linecap:butt;stroke-linejoin:miter;stroke-miterlimit:4;stroke-dasharray:none;stroke-opacity:1" />
      <path
         d="m -43.278274,368.90997 a 6.4255953,6.3311014 0 0 1 -6.381101,6.33095 6.4255953,6.3311014 0 0 1 -6.469473,-6.24327 6.4255953,6.3311014 0 0 1 6.291505,-6.41741 6.4255953,6.3311014 0 0 1 6.556605,6.15439"
         sodipodi:open="true"
         sodipodi:end="6.2554869"
         sodipodi:start="0"
         sodipodi:ry="6.3311014"
         sodipodi:rx="6.4255953"
         sodipodi:cy="368.90997"
         sodipodi:cx="-49.703869"
         sodipodi:type="arc"
         id="path2170"
         style="opacity:0.69199997;fill:#000000;fill-opacity:1;stroke:none;stroke-width:0.79374999;stroke-miterlimit:4;stroke-dasharray:none;stroke-opacity:1" />
      <path
         sodipodi:nodetypes="ssscss"
         inkscape:connector-curvature="0"
         id="path2147"
         d="m -97.357441,402.07635 c 8.227713,28.59905 -37.286979,-3.82862 -30.015709,-37.19462 5.59923,-25.6934 33.455819,-44.83182 52.808605,-42.54795 12.540172,1.4799 28.79799,1.36545 43.37182,34.5405 -10.73372,-11.16528 -38.478458,-6.36338 -48.498222,2.99553 -9.523355,8.89524 -24.324633,19.06323 -17.666494,42.20654 z"
         style="opacity:1;fill:#5fd3bc;fill-opacity:1;stroke:none;stroke-width:0.79374999;stroke-miterlimit:4;stroke-dasharray:none;stroke-opacity:1" />
      <path
         style="opacity:0.69199997;fill:#000000;fill-opacity:1;stroke:none;stroke-width:0.79374999;stroke-miterlimit:4;stroke-dasharray:none;stroke-opacity:1"
         id="path2172"
         sodipodi:type="arc"
         sodipodi:cx="-74.461311"
         sodipodi:cy="386.67487"
         sodipodi:rx="6.4255953"
         sodipodi:ry="6.3311014"
         sodipodi:start="0"
         sodipodi:end="6.2554869"
         sodipodi:open="true"
         d="m -68.035716,386.67487 a 6.4255953,6.3311014 0 0 1 -6.381101,6.33095 6.4255953,6.3311014 0 0 1 -6.469473,-6.24328 6.4255953,6.3311014 0 0 1 6.291504,-6.41741 6.4255953,6.3311014 0 0 1 6.556605,6.1544" />
      <g
         transform="matrix(0.87483385,-0.64950953,0.64703815,0.88004764,-418.936,171.37804)"
         id="g2166">
        <path
           style="opacity:0.69199997;fill:#ff7f2a;fill-opacity:1;stroke:none;stroke-width:1.51955497;stroke-miterlimit:4;stroke-dasharray:none"
           d="m 133.10327,352.50737 c -4.73053,-3.68184 -5.58073,-10.50136 -1.89895,-15.23191 3.68183,-4.73052 10.50135,-5.58073 15.23191,-1.89893 4.73059,3.68175 5.58074,10.50134 1.89896,15.2319 -3.68184,4.73053 -10.50137,5.58074 -15.23192,1.89894 z"
           id="path2159"
           inkscape:connector-curvature="0"
           sodipodi:nodetypes="sssss" />
        <path
           style="opacity:1;fill:none;fill-opacity:1;stroke:#000000;stroke-width:1.51955497;stroke-miterlimit:4;stroke-dasharray:none"
           d="m 133.16299,352.58079 c -4.73058,-3.68175 -5.58074,-10.50133 -1.89894,-15.23188 3.68184,-4.73053 10.50134,-5.58074 15.2319,-1.89896 4.73053,3.68183 5.58074,10.50136 1.89894,15.23192 -3.68183,4.73052 -10.50134,5.58073 -15.2319,1.89892 z"
           id="circle1767"
           inkscape:connector-curvature="0"
           sodipodi:nodetypes="sssss" />
        <path
           sodipodi:nodetypes="sssss"
           inkscape:connector-curvature="0"
           id="path2157"
           d="m 161.64047,352.12939 c -4.73053,-3.68184 -5.58073,-10.50136 -1.89895,-15.23191 3.68183,-4.73052 10.50135,-5.58073 15.23191,-1.89893 4.73059,3.68175 5.58074,10.50134 1.89896,15.2319 -3.68184,4.73053 -10.50137,5.58074 -15.23192,1.89894 z"
           style="opacity:0.69199997;fill:#ff7f2a;fill-opacity:1;stroke:none;stroke-width:1.51955497;stroke-miterlimit:4;stroke-dasharray:none" />
        <path
           style="opacity:1;fill:none;fill-opacity:1;stroke:#000000;stroke-width:1.51955497;stroke-miterlimit:4;stroke-dasharray:none"
           d="m 161.45148,351.9404 c -4.73053,-3.68184 -5.58073,-10.50136 -1.89895,-15.23191 3.68183,-4.73052 10.50135,-5.58073 15.23191,-1.89893 4.73059,3.68175 5.58074,10.50134 1.89896,15.2319 -3.68184,4.73053 -10.50137,5.58074 -15.23192,1.89894 z"
           id="circle1769"
           inkscape:connector-curvature="0"
           sodipodi:nodetypes="sssss" />
        <path
           style="opacity:1;fill:#000000;fill-opacity:1;stroke:#000000;stroke-width:0.79374999;stroke-miterlimit:4;stroke-dasharray:none;stroke-opacity:1"
           d="m 163.35253,333.40037 c -0.0551,0.82636 -2.55117,1.3181 -3.2335,3.01888 -0.82391,2.05372 -3.44218,-0.0437 -6.16617,0.38271 -3.21299,0.50295 -6.03347,1.74123 -6.11826,-0.70307 -0.0318,-0.91838 -2.79584,-0.56297 -2.81322,-2.01636 8.88785,3.26194 13.87304,1.06572 18.33115,-0.68212 z"
           id="path2154"
           inkscape:connector-curvature="0"
           sodipodi:nodetypes="csssccc" />
      </g>
      <path
         sodipodi:nodetypes="cscsc"
         inkscape:connector-curvature="0"
         id="path2176"
         d="m -57.725418,315.88913 c 3e-6,5.19323 -17.562333,-9.29176 -35.237205,-9.2558 -17.674867,0.036 -32.136157,7.2137 -32.380927,2.02097 -0.24478,-5.19273 16.29263,-19.06513 33.964107,-19.17301 17.671484,-0.10788 36.450778,22.27297 36.940285,27.46421"
         style="opacity:0.69199997;fill:#87decd;fill-opacity:1;stroke:none;stroke-width:0.82903159;stroke-miterlimit:4;stroke-dasharray:none;stroke-opacity:1"
         transform="matrix(0.91669597,-0.39958541,0,1,0,0)" />
    </g>
  </g>
</svg>
