<?xml version="1.0" encoding="UTF-8" standalone="no"?>
<!-- Created with Inkscape (http://www.inkscape.org/) -->

<svg
   xmlns:dc="http://purl.org/dc/elements/1.1/"
   xmlns:cc="http://creativecommons.org/ns#"
   xmlns:rdf="http://www.w3.org/1999/02/22-rdf-syntax-ns#"
   xmlns:svg="http://www.w3.org/2000/svg"
   xmlns="http://www.w3.org/2000/svg"
   xmlns:sodipodi="http://sodipodi.sourceforge.net/DTD/sodipodi-0.dtd"
   xmlns:inkscape="http://www.inkscape.org/namespaces/inkscape"
   width="76.1716"
   height="66.469177"
   viewBox="0 0 20.153737 17.586637"
   version="1.1"
   id="svg1625"
   sodipodi:docname="pengdrive-font-size.svg"
   inkscape:version="0.92.3 (2405546, 2018-03-11)">
  <defs
     id="defs1619" />
  <sodipodi:namedview
     id="base"
     pagecolor="#ffffff"
     bordercolor="#666666"
     borderopacity="1.0"
     inkscape:pageopacity="0.0"
     inkscape:pageshadow="2"
     inkscape:zoom="2"
     inkscape:cx="-204.48867"
     inkscape:cy="61.337074"
     inkscape:document-units="mm"
     inkscape:current-layer="layer1"
     showgrid="false"
     inkscape:window-width="1920"
     inkscape:window-height="1025"
     inkscape:window-x="0"
     inkscape:window-y="27"
     inkscape:window-maximized="1"
     fit-margin-top="0"
     fit-margin-left="0"
     fit-margin-right="0"
     fit-margin-bottom="0"
     units="px" />
  <metadata
     id="metadata1622">
    <rdf:RDF>
      <cc:Work
         rdf:about="">
        <dc:format>image/svg+xml</dc:format>
        <dc:type
           rdf:resource="http://purl.org/dc/dcmitype/StillImage" />
        <dc:title></dc:title>
      </cc:Work>
    </rdf:RDF>
  </metadata>
  <g
     inkscape:label="Layer 1"
     inkscape:groupmode="layer"
     id="layer1"
     transform="translate(-38.57414,-237.695)">
    <path
       style="fill:#cccccc;fill-opacity:1;stroke:#cccccc;stroke-width:0.19243477;stroke-miterlimit:4;stroke-dasharray:none"
       d="m 53.387047,243.57313 v 1.54111 c 0.500437,0.17764 1.138158,0.34221 1.81437,0.45431 1.609264,0.2668 3.790828,0.0107 3.381626,-0.24209 -0.3524,-0.21768 -1.930186,-0.39943 -2.847678,-0.68871 -1.381132,-0.43546 -1.983904,-0.94599 -2.348318,-1.06462 z"
       id="path1916"
       inkscape:connector-curvature="0" />
    <path
       style="fill:#cccccc;fill-opacity:1;stroke:#cccccc;stroke-width:0.51232243;stroke-miterlimit:4;stroke-dasharray:none"
       d="m 45.636004,252.28044 v 2.74504 h 6.11759 v -2.74504 z m 0.543416,0.4634 h 1.652304 v 2.05536 H 46.17942 Z m 3.147301,0 h 1.652302 v 2.05536 h -1.652302 z"
       id="rect1830"
       inkscape:connector-curvature="0" />
    <path
       inkscape:connector-curvature="0"
       style="fill:#cccccc;fill-opacity:1;stroke:#cccccc;stroke-width:0.05965094;stroke-miterlimit:4;stroke-dasharray:none"
       d="m 44.637807,237.72483 c -0.707066,0 -1.276316,0.32596 -1.276316,0.73083 v 12.63868 c 0,0.40487 0.56925,0.73079 1.276316,0.73079 h 7.882985 c 0.707062,0 1.276262,-0.32592 1.276262,-0.73079 v -12.63868 c 0,-0.40487 -0.5692,-0.73083 -1.276262,-0.73083 z m 0.696329,0.39287 h 6.490324 c 0.667664,0 1.205129,0.30779 1.205129,0.6901 v 11.9344 c 0,0.38231 -0.537465,0.69009 -1.205129,0.69009 h -6.490324 c -0.667667,0 -1.20513,-0.30778 -1.20513,-0.69009 v -11.9344 c 0,-0.38231 0.537463,-0.6901 1.20513,-0.6901 z"
       id="rect1832" />
    <g
       id="g1890"
       transform="matrix(0.01690083,0,0,0.00873814,66.015125,247.91051)">
      <circle
         style="fill:#cccccc;fill-opacity:1;stroke:#cccccc;stroke-width:1.480407;stroke-miterlimit:4;stroke-dasharray:none"
         id="circle1836"
         cx="-303.01282"
         cy="-1027.9323"
         r="74.725311"
         transform="rotate(-87.968436)" />
      <circle
         style="fill:#cccccc;fill-opacity:1;stroke:#cccccc;stroke-width:1.80741525;stroke-miterlimit:4;stroke-dasharray:none"
         id="circle1838"
         cx="82.391655"
         cy="-1124.2936"
         r="34.426956"
         transform="rotate(-87.968436)" />
      <rect
         style="fill:#cccccc;fill-opacity:1;stroke:#cccccc;stroke-width:1.80741525;stroke-miterlimit:4;stroke-dasharray:none"
         id="rect1840"
         width="55.08313"
         height="55.08313"
         x="129.55821"
         y="-925.39636"
         ry="0"
         transform="rotate(-87.968436)" />
      <path
         sodipodi:type="star"
         style="fill:#cccccc;fill-opacity:1;stroke:#cccccc;stroke-width:0.79374999;stroke-miterlimit:4;stroke-dasharray:none"
         id="path1842"
         sodipodi:sides="3"
         sodipodi:cx="195.79166"
         sodipodi:cy="64.922607"
         sodipodi:r1="16.648125"
         sodipodi:r2="8.3240614"
         sodipodi:arg1="0.045423279"
         sodipodi:arg2="1.0926208"
         inkscape:flatsided="false"
         inkscape:rounded="0"
         inkscape:randomized="0"
         d="m 212.42261,65.67856 -12.80055,6.634448 -12.80055,6.634451 0.65467,-14.402827 0.65467,-14.402828 12.14588,7.768378 z"
         inkscape:transform-center-x="-38.335656"
         inkscape:transform-center-y="0.03457433"
         transform="matrix(-0.03460869,-3.3222976,3.3222976,-0.03460869,-1223.1031,315.81595)" />
      <path
         style="fill:none;stroke:#cccccc;stroke-width:19.44791222;stroke-linecap:butt;stroke-linejoin:miter;stroke-miterlimit:4;stroke-dasharray:none;stroke-opacity:1"
         d="m -1036.0874,201.98616 19.0873,-528.00447"
         id="path1844"
         inkscape:connector-curvature="0" />
      <path
         inkscape:connector-curvature="0"
         id="path1846"
         d="m -1032.7441,160.24393 -96.2298,-174.761184 6.9228,-102.031246"
         style="fill:none;stroke:#cccccc;stroke-width:18.50548935;stroke-linecap:butt;stroke-linejoin:miter;stroke-miterlimit:4;stroke-dasharray:none;stroke-opacity:1"
         sodipodi:nodetypes="ccc" />
      <path
         style="fill:none;stroke:#cccccc;stroke-width:19.44791222;stroke-linecap:butt;stroke-linejoin:miter;stroke-miterlimit:4;stroke-dasharray:none;stroke-opacity:1"
         d="m -1031.1268,66.731984 c 0.063,-0.272918 -0.4044,3.024976 -0.3222,2.758691 24.6334,-81.59304 38.89656,-92.31862 78.1021,-122.692834 26.98598,-20.906903 57.33587,-34.736429 59.74659,-109.352411"
         id="path1848"
         inkscape:connector-curvature="0"
         sodipodi:nodetypes="cssc" />
    </g>
    <path
       sodipodi:nodetypes="sssss"
       inkscape:connector-curvature="0"
       id="path1854"
       d="m 50.217144,242.40124 c 0,0.48071 -0.680577,0.87042 -1.520111,0.87042 -0.839537,0 -1.520114,-0.38971 -1.520114,-0.87042 0,-0.48073 1.00548,-1.26304 1.503033,-1.26776 0.566437,-0.005 1.537192,0.78703 1.537192,1.26776 z"
       style="fill:#cccccc;fill-opacity:1;stroke:#cccccc;stroke-width:0.09047123;stroke-miterlimit:4;stroke-dasharray:none" />
    <ellipse
       cy="240.58926"
       cx="46.263958"
       id="circle1856"
       style="fill:#cccccc;fill-opacity:1;stroke:#cccccc;stroke-width:0.0954415;stroke-miterlimit:4;stroke-dasharray:none"
       rx="0.90091258"
       ry="0.51586491" />
    <ellipse
       style="fill:#cccccc;fill-opacity:1;stroke:#cccccc;stroke-width:0.0954415;stroke-miterlimit:4;stroke-dasharray:none"
       id="circle1858"
       cx="51.254112"
       cy="240.57407"
       rx="0.90091258"
       ry="0.51586491" />
    <path
       sodipodi:nodetypes="ssccaccsss"
       inkscape:connector-curvature="0"
       id="path1860"
       d="m 45.334136,238.1177 c -0.69144,0 -1.248094,0.30773 -1.248094,0.68996 v 2.08781 c 0.05899,-1.74129 1.272101,-1.99103 2.574637,-1.99229 1.108051,-0.0207 1.163676,0.83216 1.99367,0.82494 0.88497,-0.008 0.958178,-0.89349 2.074616,-0.91611 1.303225,0.001 2.666745,0.33808 2.574637,1.99411 v -1.99846 c 0,-0.38223 -0.556656,-0.68996 -1.248092,-0.68996 z"
       style="fill:#cccccc;fill-opacity:1;stroke:none;stroke-width:0.05447231;stroke-miterlimit:4;stroke-dasharray:none" />
    <path
       inkscape:connector-curvature="0"
       id="path1918"
       d="m 43.914968,243.57313 v 1.54111 c -0.500437,0.17764 -1.138157,0.34221 -1.81437,0.45431 -1.609264,0.2668 -3.79083,0.0107 -3.381626,-0.24209 0.3524,-0.21768 1.930185,-0.39943 2.847678,-0.68871 1.381131,-0.43546 1.983905,-0.94599 2.348318,-1.06462 z"
       style="fill:#cccccc;fill-opacity:1;stroke:#cccccc;stroke-width:0.19243477;stroke-miterlimit:4;stroke-dasharray:none" />
  </g>
</svg>
