<?xml version="1.0" encoding="UTF-8" standalone="no"?>
<!-- Created with Inkscape (http://www.inkscape.org/) -->

<svg
   xmlns:dc="http://purl.org/dc/elements/1.1/"
   xmlns:cc="http://creativecommons.org/ns#"
   xmlns:rdf="http://www.w3.org/1999/02/22-rdf-syntax-ns#"
   xmlns:svg="http://www.w3.org/2000/svg"
   xmlns="http://www.w3.org/2000/svg"
   xmlns:xlink="http://www.w3.org/1999/xlink"
   xmlns:sodipodi="http://sodipodi.sourceforge.net/DTD/sodipodi-0.dtd"
   xmlns:inkscape="http://www.inkscape.org/namespaces/inkscape"
   width="964.99994"
   height="399.99997"
   viewBox="0 0 255.32289 105.83333"
   version="1.1"
   id="svg8"
   inkscape:version="0.92.3 (2405546, 2018-03-11)"
   sodipodi:docname="arctic_no_forground.svg"
   inkscape:export-filename="/mymirror/webDev/pengdive/images/arctice-scene.png"
   inkscape:export-xdpi="96"
   inkscape:export-ydpi="96">
  <defs
     id="defs2">
    <linearGradient
       id="linearGradient1320"
       inkscape:collect="always">
      <stop
         id="stop1316"
         offset="0"
         style="stop-color:#12afa3;stop-opacity:1" />
      <stop
         id="stop1318"
         offset="1"
         style="stop-color:#80e5ff;stop-opacity:0;" />
    </linearGradient>
    <linearGradient
       inkscape:collect="always"
       id="linearGradient1260">
      <stop
         style="stop-color:#d7eef4;stop-opacity:1;"
         offset="0"
         id="stop1256" />
      <stop
         style="stop-color:#d7eef4;stop-opacity:0;"
         offset="1"
         id="stop1258" />
    </linearGradient>
    <linearGradient
       inkscape:collect="always"
       id="linearGradient982">
      <stop
         style="stop-color:#0088aa;stop-opacity:1"
         offset="0"
         id="stop978" />
      <stop
         style="stop-color:#80e5ff;stop-opacity:0;"
         offset="1"
         id="stop980" />
    </linearGradient>
    <clipPath
       clipPathUnits="userSpaceOnUse"
       id="clipPath865">
      <rect
         style="opacity:1;fill:#80e5ff;fill-opacity:0.53191457;stroke:none;stroke-width:3.58112192;stroke-miterlimit:4;stroke-dasharray:none;stroke-opacity:1"
         id="rect867"
         width="173.86905"
         height="104.32143"
         x="-516.31543"
         y="-61.321438" />
    </clipPath>
    <clipPath
       clipPathUnits="userSpaceOnUse"
       id="clipPath869">
      <rect
         style="opacity:1;fill:#80e5ff;fill-opacity:0.53191457;stroke:none;stroke-width:3.58112192;stroke-miterlimit:4;stroke-dasharray:none;stroke-opacity:1"
         id="rect871"
         width="173.86905"
         height="104.32143"
         x="-516.31543"
         y="-61.321438" />
    </clipPath>
    <clipPath
       clipPathUnits="userSpaceOnUse"
       id="clipPath873">
      <rect
         style="opacity:1;fill:#80e5ff;fill-opacity:0.53191457;stroke:none;stroke-width:3.58112192;stroke-miterlimit:4;stroke-dasharray:none;stroke-opacity:1"
         id="rect875"
         width="173.86905"
         height="104.32143"
         x="-516.31543"
         y="-61.321438" />
    </clipPath>
    <clipPath
       clipPathUnits="userSpaceOnUse"
       id="clipPath877">
      <rect
         style="opacity:1;fill:#80e5ff;fill-opacity:0.53191457;stroke:none;stroke-width:3.58112192;stroke-miterlimit:4;stroke-dasharray:none;stroke-opacity:1"
         id="rect879"
         width="173.86905"
         height="104.32143"
         x="-516.31543"
         y="-61.321438" />
    </clipPath>
    <clipPath
       clipPathUnits="userSpaceOnUse"
       id="clipPath881">
      <rect
         style="opacity:1;fill:#80e5ff;fill-opacity:0.53191457;stroke:none;stroke-width:3.58112192;stroke-miterlimit:4;stroke-dasharray:none;stroke-opacity:1"
         id="rect883"
         width="173.86905"
         height="104.32143"
         x="-516.31543"
         y="-61.321438" />
    </clipPath>
    <clipPath
       clipPathUnits="userSpaceOnUse"
       id="clipPath885">
      <rect
         style="opacity:1;fill:#80e5ff;fill-opacity:0.53191457;stroke:none;stroke-width:3.58112192;stroke-miterlimit:4;stroke-dasharray:none;stroke-opacity:1"
         id="rect887"
         width="173.86905"
         height="104.32143"
         x="-516.31543"
         y="-61.321438" />
    </clipPath>
    <clipPath
       clipPathUnits="userSpaceOnUse"
       id="clipPath889">
      <rect
         style="opacity:1;fill:#80e5ff;fill-opacity:0.53191457;stroke:none;stroke-width:3.58112192;stroke-miterlimit:4;stroke-dasharray:none;stroke-opacity:1"
         id="rect891"
         width="173.86905"
         height="104.32143"
         x="-516.31543"
         y="-61.321438" />
    </clipPath>
    <clipPath
       clipPathUnits="userSpaceOnUse"
       id="clipPath893">
      <rect
         style="opacity:1;fill:#80e5ff;fill-opacity:0.53191457;stroke:none;stroke-width:3.58112192;stroke-miterlimit:4;stroke-dasharray:none;stroke-opacity:1"
         id="rect895"
         width="173.86905"
         height="104.32143"
         x="-516.31543"
         y="-61.321438" />
    </clipPath>
    <clipPath
       clipPathUnits="userSpaceOnUse"
       id="clipPath897">
      <rect
         style="opacity:1;fill:#80e5ff;fill-opacity:0.53191457;stroke:none;stroke-width:3.58112192;stroke-miterlimit:4;stroke-dasharray:none;stroke-opacity:1"
         id="rect899"
         width="173.86905"
         height="104.32143"
         x="-516.31543"
         y="-61.321438" />
    </clipPath>
    <clipPath
       clipPathUnits="userSpaceOnUse"
       id="clipPath901">
      <rect
         style="opacity:1;fill:#80e5ff;fill-opacity:0.53191457;stroke:none;stroke-width:3.58112192;stroke-miterlimit:4;stroke-dasharray:none;stroke-opacity:1"
         id="rect903"
         width="173.86905"
         height="104.32143"
         x="-516.31543"
         y="-61.321438" />
    </clipPath>
    <clipPath
       clipPathUnits="userSpaceOnUse"
       id="clipPath905">
      <rect
         style="opacity:1;fill:#80e5ff;fill-opacity:0.53191457;stroke:none;stroke-width:3.58112192;stroke-miterlimit:4;stroke-dasharray:none;stroke-opacity:1"
         id="rect907"
         width="173.86905"
         height="104.32143"
         x="-516.31543"
         y="-61.321438" />
    </clipPath>
    <clipPath
       clipPathUnits="userSpaceOnUse"
       id="clipPath909">
      <rect
         style="opacity:1;fill:#80e5ff;fill-opacity:0.53191457;stroke:none;stroke-width:3.58112192;stroke-miterlimit:4;stroke-dasharray:none;stroke-opacity:1"
         id="rect911"
         width="173.86905"
         height="104.32143"
         x="-516.31543"
         y="-61.321438" />
    </clipPath>
    <clipPath
       clipPathUnits="userSpaceOnUse"
       id="clipPath970">
      <rect
         style="opacity:1;fill:#0000ff;fill-opacity:0.53191457;stroke:none;stroke-width:2.64600015;stroke-miterlimit:4;stroke-dasharray:none;stroke-opacity:1"
         id="rect972"
         width="164.41965"
         height="41.577381"
         x="-519.15033"
         y="-18.988106" />
    </clipPath>
    <linearGradient
       inkscape:collect="always"
       xlink:href="#linearGradient1320"
       id="linearGradient984"
       x1="120.19643"
       y1="54.373447"
       x2="120.19643"
       y2="325.27032"
       gradientUnits="userSpaceOnUse"
       gradientTransform="matrix(0.39182131,0,0,0.25547447,-136.71298,259.26146)" />
    <clipPath
       clipPathUnits="userSpaceOnUse"
       id="clipPath1019">
      <rect
         style="opacity:1;fill:#d5f6ff;fill-opacity:0.53191457;stroke:none;stroke-width:2.64600015;stroke-miterlimit:4;stroke-dasharray:none;stroke-opacity:1"
         id="rect1021"
         width="257.77975"
         height="76.351196"
         x="-557.1369"
         y="-82.488098" />
    </clipPath>
    <clipPath
       clipPathUnits="userSpaceOnUse"
       id="clipPath1075">
      <rect
         style="opacity:1;fill:#5fd3bc;fill-opacity:0.33333333;stroke:none;stroke-width:2.64600015;stroke-miterlimit:4;stroke-dasharray:none;stroke-opacity:1"
         id="rect1077"
         width="236.6131"
         height="80.886909"
         x="-528.41071"
         y="-24.27977" />
    </clipPath>
    <radialGradient
       inkscape:collect="always"
       xlink:href="#linearGradient1260"
       id="radialGradient1262"
       cx="224.13986"
       cy="46.0238"
       fx="224.13986"
       fy="46.0238"
       r="47.80888"
       gradientTransform="matrix(0.40111441,0.00807911,-0.01147767,0.24225766,-138.86008,263.46644)"
       gradientUnits="userSpaceOnUse" />
    <clipPath
       clipPathUnits="userSpaceOnUse"
       id="clipPath1276">
      <rect
         y="-49.226204"
         x="-214.69048"
         height="414.26187"
         width="651.63098"
         id="rect1278"
         style="opacity:1;fill:#916f6f;fill-opacity:1;stroke:none;stroke-width:2.64600015;stroke-miterlimit:4;stroke-dasharray:none;stroke-opacity:1" />
    </clipPath>
    <clipPath
       clipPathUnits="userSpaceOnUse"
       id="clipPath1284">
      <rect
         y="-49.226204"
         x="-214.69048"
         height="414.26187"
         width="651.63098"
         id="rect1286"
         style="opacity:1;fill:url(#linearGradient1288);fill-opacity:1;stroke:none;stroke-width:2.64600015;stroke-miterlimit:4;stroke-dasharray:none;stroke-opacity:1" />
    </clipPath>
    <linearGradient
       inkscape:collect="always"
       xlink:href="#linearGradient982"
       id="linearGradient1288"
       gradientUnits="userSpaceOnUse"
       gradientTransform="translate(1.5119048,-21.166668)"
       x1="120.19643"
       y1="-16.720247"
       x2="128.5119"
       y2="280.36905" />
    <clipPath
       clipPathUnits="userSpaceOnUse"
       id="clipPath1298">
      <rect
         y="-34.107155"
         x="-265.14688"
         height="414.26187"
         width="510.64175"
         id="rect1300"
         style="opacity:1;fill:url(#linearGradient1302);fill-opacity:1;stroke:none;stroke-width:2.34232497;stroke-miterlimit:4;stroke-dasharray:none;stroke-opacity:1"
         transform="scale(-1,1)" />
    </clipPath>
    <linearGradient
       inkscape:collect="always"
       xlink:href="#linearGradient982"
       id="linearGradient1302"
       gradientUnits="userSpaceOnUse"
       gradientTransform="matrix(0.78363641,0,0,0.99999999,-95.72283,-6.047619)"
       x1="120.19643"
       y1="-16.720247"
       x2="128.5119"
       y2="280.36905" />
    <clipPath
       clipPathUnits="userSpaceOnUse"
       id="clipPath1331">
      <path
         style="fill:none;stroke:#000000;stroke-width:0.26458332px;stroke-linecap:butt;stroke-linejoin:miter;stroke-opacity:1"
         d="m 182.70794,196.41571 c 0,0 -21.81168,33.76689 -34.10608,42.85406 -12.2944,9.08717 -41.69405,24.58879 -51.315754,36.34867 -9.6217,11.75986 -11.225321,39.02133 -11.225321,39.02133 l 15.501635,51.85029 372.53009,8.64428 -25.61426,-201.61287 -58.26477,-54.523 -192.96857,28.33057 z"
         id="path1333"
         inkscape:connector-curvature="0" />
    </clipPath>
    <clipPath
       clipPathUnits="userSpaceOnUse"
       id="clipPath1344">
      <path
         style="fill:none;stroke:#000000;stroke-width:0.26458332px;stroke-linecap:butt;stroke-linejoin:miter;stroke-opacity:1"
         d="M -236.8008,116.86033 65.748305,88.529758 76.439086,204.52474 99.424263,231.25169 c 0,0 11.759857,10.69078 37.417727,25.12334 25.65788,14.43255 44.90129,37.95226 42.76313,47.57396 -2.13816,9.62171 13.36348,37.95226 10.15625,42.76313 -3.20724,4.81084 -28.86512,35.81413 -28.86512,35.81413 l -390.74804,-2.13818 z"
         id="path1346"
         inkscape:connector-curvature="0"
         sodipodi:nodetypes="ccccsscccc" />
    </clipPath>
    <clipPath
       clipPathUnits="userSpaceOnUse"
       id="clipPath1352">
      <rect
         y="-49.226204"
         x="-214.69048"
         height="414.26187"
         width="651.63098"
         id="rect1354"
         style="opacity:1;fill:url(#linearGradient1356);fill-opacity:1;stroke:none;stroke-width:2.64600015;stroke-miterlimit:4;stroke-dasharray:none;stroke-opacity:1" />
    </clipPath>
    <linearGradient
       inkscape:collect="always"
       xlink:href="#linearGradient1320"
       id="linearGradient1356"
       gradientUnits="userSpaceOnUse"
       gradientTransform="translate(1.5119048,-21.166668)"
       x1="120.19643"
       y1="54.373447"
       x2="120.19643"
       y2="325.27032" />
    <clipPath
       clipPathUnits="userSpaceOnUse"
       id="clipPath1360">
      <path
         style="fill:none;stroke:#000000;stroke-width:0.26458332px;stroke-linecap:butt;stroke-linejoin:miter;stroke-opacity:1"
         d="m -248.1938,365.62555 17.10525,-292.927393 305.756332,-3.207231 8.55263,144.325544 c 0,0 3.741772,12.82893 32.606878,39.02136 28.86511,26.1924 55.59206,44.36674 64.67922,57.19567 9.08717,12.82893 16.03617,58.79931 14.43256,65.21376 -1.60362,6.41448 -31.00327,9.6217 -31.00327,9.6217 l -409.45691,-17.63977 z"
         id="path1362"
         inkscape:connector-curvature="0" />
    </clipPath>
    <clipPath
       clipPathUnits="userSpaceOnUse"
       id="clipPath1368">
      <path
         style="fill:#484537;fill-opacity:1;stroke:none;stroke-width:0.26458332px;stroke-linecap:butt;stroke-linejoin:miter;stroke-opacity:1"
         d="m -214.69047,211.57737 c 0,0 65.0119,-92.22619 80.8869,-83.91071 15.875,8.31547 34.77381,51.40476 55.940477,54.42857 21.166666,3.02381 30.238094,9.07142 49.136903,-9.07143 18.8988092,-18.14286 59.720238,-72.57143 64.25595,-74.083335 4.535715,-1.511903 7.559524,-23.434521 23.434524,37.041665 15.875,60.47619 13.607143,81.64286 46.869046,85.42262 33.26191,3.77976 58.20833,8.31548 72.57143,-17.3869 14.3631,-25.70239 31.75,-49.13691 40.82143,-36.28572 9.07143,12.85119 48.38096,49.89286 75.59523,49.13691 27.2143,-0.75596 44.60118,-37.79762 65.76785,-53.67262 21.16667,-15.875 9.07145,-39.30952 41.57739,-1.51191 32.50594,37.79762 34.77382,41.57738 34.77382,41.57738 l 9.82736,211.66666 -659.94641,-13.60713 -45.35714,-113.39287 z"
         id="path1370"
         inkscape:connector-curvature="0"
         clip-path="url(#clipPath1360)" />
    </clipPath>
    <clipPath
       clipPathUnits="userSpaceOnUse"
       id="clipPath1382">
      <rect
         y="-49.226204"
         x="-214.69048"
         height="414.26187"
         width="651.63098"
         id="rect1384"
         style="opacity:1;fill:#aca793;fill-opacity:1;stroke:none;stroke-width:2.64600015;stroke-miterlimit:4;stroke-dasharray:none;stroke-opacity:1" />
    </clipPath>
    <clipPath
       clipPathUnits="userSpaceOnUse"
       id="clipPath1394">
      <rect
         y="-49.226204"
         x="-214.69048"
         height="414.26187"
         width="651.63098"
         id="rect1396"
         style="opacity:1;fill:#00ff00;fill-opacity:1;stroke:none;stroke-width:2.64600015;stroke-miterlimit:4;stroke-dasharray:none;stroke-opacity:1" />
    </clipPath>
    <filter
       inkscape:collect="always"
       style="color-interpolation-filters:sRGB"
       id="filter1476"
       x="-0.0036211431"
       width="1.0072423"
       y="-0.016820842"
       height="1.0336417">
      <feGaussianBlur
         inkscape:collect="always"
         stdDeviation="1.0129792"
         id="feGaussianBlur1478" />
    </filter>
    <clipPath
       clipPathUnits="userSpaceOnUse"
       id="clipPath1528">
      <rect
         y="-42.99221"
         x="-214.23569"
         height="405.59348"
         width="651.63098"
         id="rect1530"
         style="opacity:1;fill:#ff0000;fill-opacity:1;stroke:none;stroke-width:2.61817002;stroke-miterlimit:4;stroke-dasharray:none;stroke-opacity:1" />
    </clipPath>
    <filter
       inkscape:collect="always"
       style="color-interpolation-filters:sRGB"
       id="filter1660"
       x="-0.010932959"
       width="1.0218658"
       y="-0.014753309"
       height="1.0295066">
      <feGaussianBlur
         inkscape:collect="always"
         stdDeviation="0.43444325"
         id="feGaussianBlur1662" />
    </filter>
    <filter
       inkscape:collect="always"
       style="color-interpolation-filters:sRGB"
       id="filter1664"
       x="-0.010074399"
       width="1.0201488"
       y="-0.014780954"
       height="1.0295619">
      <feGaussianBlur
         inkscape:collect="always"
         stdDeviation="0.44053671"
         id="feGaussianBlur1666" />
    </filter>
    <clipPath
       clipPathUnits="userSpaceOnUse"
       id="clipPath1672">
      <rect
         y="-49.226204"
         x="-214.69048"
         height="414.26187"
         width="651.63098"
         id="rect1674"
         style="opacity:1;fill:#ff0000;fill-opacity:1;stroke:none;stroke-width:2.64600015;stroke-miterlimit:4;stroke-dasharray:none;stroke-opacity:1" />
    </clipPath>
    <clipPath
       clipPathUnits="userSpaceOnUse"
       id="clipPath1682">
      <rect
         y="154.71684"
         x="-92.571098"
         height="211.1279"
         width="529.51154"
         id="rect1684"
         style="opacity:1;fill:#005544;fill-opacity:1;stroke:none;stroke-width:1.70279384;stroke-miterlimit:4;stroke-dasharray:none;stroke-opacity:1" />
    </clipPath>
    <clipPath
       clipPathUnits="userSpaceOnUse"
       id="clipPath1688">
      <rect
         y="-47.638702"
         x="-214.69048"
         height="414.26187"
         width="529.51154"
         id="rect1690"
         style="opacity:1;fill:#ff0000;fill-opacity:1;stroke:none;stroke-width:2.38521051;stroke-miterlimit:4;stroke-dasharray:none;stroke-opacity:1" />
    </clipPath>
    <clipPath
       clipPathUnits="userSpaceOnUse"
       id="clipPath1779">
      <rect
         style="opacity:1;fill:#ff0000;fill-opacity:0.55;stroke:none;stroke-width:13.25259304;stroke-miterlimit:4;stroke-dasharray:none;stroke-opacity:1"
         id="rect1781"
         width="116.58762"
         height="311.33252"
         x="317.53549"
         y="5.8180737" />
    </clipPath>
    <filter
       inkscape:collect="always"
       style="color-interpolation-filters:sRGB"
       id="filter1795"
       x="-0.0038491664"
       width="1.0076983"
       y="-0.0084551442"
       height="1.0169103">
      <feGaussianBlur
         inkscape:collect="always"
         stdDeviation="1.1311795"
         id="feGaussianBlur1797" />
    </filter>
  </defs>
  <sodipodi:namedview
     id="base"
     pagecolor="#ffffff"
     bordercolor="#666666"
     borderopacity="1.0"
     inkscape:pageopacity="0.0"
     inkscape:pageshadow="2"
     inkscape:zoom="1"
     inkscape:cx="666.29687"
     inkscape:cy="119.68718"
     inkscape:document-units="px"
     inkscape:current-layer="layer1"
     showgrid="false"
     showborder="true"
     units="px"
     inkscape:snap-global="false"
     inkscape:window-width="1920"
     inkscape:window-height="1025"
     inkscape:window-x="0"
     inkscape:window-y="27"
     inkscape:window-maximized="1"
     fit-margin-top="0"
     fit-margin-left="0"
     fit-margin-right="0"
     fit-margin-bottom="0"
     showguides="true"
     inkscape:guide-bbox="true" />
  <metadata
     id="metadata5">
    <rdf:RDF>
      <cc:Work
         rdf:about="">
        <dc:format>image/svg+xml</dc:format>
        <dc:type
           rdf:resource="http://purl.org/dc/dcmitype/StillImage" />
        <dc:title></dc:title>
      </cc:Work>
    </rdf:RDF>
  </metadata>
  <g
     inkscape:label="Layer 1"
     inkscape:groupmode="layer"
     id="layer1"
     transform="translate(221.42566,-252.09296)">
    <ellipse
       style="opacity:1;fill:#80e5ff;fill-opacity:0.53191457;stroke:none;stroke-width:2.64600015;stroke-miterlimit:4;stroke-dasharray:none;stroke-opacity:1"
       id="path841"
       cx="-462.26486"
       cy="52.82737"
       rx="7.9375"
       ry="1.5119048"
       clip-path="url(#clipPath865)" />
    <rect
       style="opacity:1;fill:url(#linearGradient984);fill-opacity:1;stroke:none;stroke-width:0.83715838;stroke-miterlimit:4;stroke-dasharray:none;stroke-opacity:1"
       id="rect815"
       width="255.32291"
       height="105.83333"
       x="-221.42566"
       y="252.09296"
       inkscape:export-filename="/mymirror/webDev/pengdive/images/arctic-scene-400.png"
       inkscape:export-xdpi="96"
       inkscape:export-ydpi="96" />
    <path
       sodipodi:open="true"
       d="m -30.750051,276.42691 a 18.732538,11.587592 0 0 1 -18.602819,11.58731 18.732538,11.587592 0 0 1 -18.860461,-11.42683 18.732538,11.587592 0 0 1 18.341606,-11.74557 18.732538,11.587592 0 0 1 19.114488,11.26416"
       sodipodi:end="6.2554857"
       sodipodi:start="0"
       sodipodi:ry="11.587592"
       sodipodi:rx="18.732538"
       sodipodi:cy="276.42691"
       sodipodi:cx="-49.48259"
       sodipodi:type="arc"
       id="path1254"
       style="opacity:1;fill:url(#radialGradient1262);fill-opacity:1;stroke:none;stroke-width:1.3575542;stroke-miterlimit:4;stroke-dasharray:none;stroke-opacity:1"
       inkscape:export-filename="/mymirror/webDev/pengdive/images/arctic-scene-400.png"
       inkscape:export-xdpi="96"
       inkscape:export-ydpi="96" />
    <path
       style="opacity:1;fill:#d7eef4;fill-opacity:0.81666667;stroke:none;stroke-width:0.83715838;stroke-miterlimit:4;stroke-dasharray:none;stroke-opacity:1"
       id="path1198"
       sodipodi:type="arc"
       sodipodi:cx="-49.48259"
       sodipodi:cy="276.42691"
       sodipodi:rx="11.551732"
       sodipodi:ry="7.1456819"
       sodipodi:start="0"
       sodipodi:end="6.2554857"
       d="m -37.930858,276.42691 a 11.551732,7.1456819 0 0 1 -11.471738,7.14551 11.551732,7.1456819 0 0 1 -11.630618,-7.04655 11.551732,7.1456819 0 0 1 11.310658,-7.2431 11.551732,7.1456819 0 0 1 11.787267,6.94623"
       sodipodi:open="true"
       inkscape:export-filename="/mymirror/webDev/pengdive/images/arctic-scene-400.png"
       inkscape:export-xdpi="96"
       inkscape:export-ydpi="96" />
    <path
       style="fill:#1eaaad;fill-opacity:1;stroke:none;stroke-width:0.26458332px;stroke-linecap:butt;stroke-linejoin:miter;stroke-opacity:1"
       d="m -227.71364,158.01984 c 34.21051,-25.65788 18.17433,-49.1776 39.5559,-28.86511 21.38156,20.31248 61.69498,69.54807 99.268488,48.67205 37.573503,-20.87602 30.089957,-48.13751 55.213292,-24.08326 25.1233353,24.05426 13.363476,123.47853 75.904544,68.421 62.541066,-55.05752 77.508166,-80.7154 82.319016,-55.59206 4.81085,25.12334 3.74177,70.02462 41.69404,72.69731 37.95228,2.6727 72.69732,-74.83547 110.64958,-55.05752 37.95228,19.77794 57.73023,66.28284 91.40618,56.1266 33.67596,-10.15624 40.09044,-47.57398 63.61015,-65.21377 23.51971,-17.63979 44.36673,127.75483 44.36673,127.75483 l -29.39962,80.18087 -572.49134,1.06908 -105.83873,-2.13815 z"
       id="path1390"
       inkscape:connector-curvature="0"
       clip-path="url(#clipPath1394)"
       transform="matrix(0.3918213,0,0,0.25547447,-137.30536,264.669)"
       inkscape:export-filename="/mymirror/webDev/pengdive/images/arctic-scene-400.png"
       inkscape:export-xdpi="96"
       inkscape:export-ydpi="96" />
    <path
       clip-path="url(#clipPath1394)"
       inkscape:connector-curvature="0"
       id="path1406"
       d="m -227.71364,158.01984 c 34.21051,-25.65788 18.17433,-49.1776 39.5559,-28.86511 21.38156,20.31248 61.69498,69.54807 99.268488,48.67205 37.573503,-20.87602 30.089957,-48.13751 55.213292,-24.08326 25.1233353,24.05426 13.363476,123.47853 75.904544,68.421 62.541066,-55.05752 77.508166,-80.7154 82.319016,-55.59206 4.81085,25.12334 3.74177,70.02462 41.69404,72.69731 37.95228,2.6727 72.69732,-74.83547 110.64958,-55.05752 37.95228,19.77794 57.73023,66.28284 91.40618,56.1266 33.67596,-10.15624 40.09044,-47.57398 63.61015,-65.21377 23.51971,-17.63979 44.36673,127.75483 44.36673,127.75483 l -29.39962,80.18087 -572.49134,1.06908 -105.83873,-2.13815 z"
       style="fill:#000000;fill-opacity:0.41111115;stroke:none;stroke-width:0.26458332px;stroke-linecap:butt;stroke-linejoin:miter;stroke-opacity:1"
       transform="matrix(0.3918213,0,0,0.25547447,-137.30536,264.669)"
       inkscape:export-filename="/mymirror/webDev/pengdive/images/arctic-scene-400.png"
       inkscape:export-xdpi="96"
       inkscape:export-ydpi="96" />
    <path
       style="fill:#d5f6ff;fill-opacity:1;stroke:none;stroke-width:0.26458332px;stroke-linecap:butt;stroke-linejoin:miter;stroke-opacity:1;filter:url(#filter1476)"
       d="m -199.0625,119.4707 c -6.18797,1.15591 -6.2217,9.49678 -9.4082,13.64063 -4.72837,9.778 -13.01937,17.22813 -20.90481,24.21543 -4.18796,5.73099 4.59627,1.75795 6.8091,-0.48496 6.29456,-3.85314 14.94615,-9.67394 22.03321,-3.82422 -0.6288,-4.16265 -4.34934,-10.98782 -0.25782,-14.28516 7.96473,0.49865 13.8267,7.26303 19.9629,11.53711 -1.42307,-6.18963 4.02762,2.25172 5.84348,3.80973 13.91295,15.93954 25.32146,34.20157 40.89675,48.61996 7.3408,5.27325 16.007,-0.74233 21.5526,-5.79284 2.9508,-3.28437 7.27291,-4.8729 11.06849,-2.08607 10.011184,4.21313 23.593168,4.45735 30.714847,-5.04101 4.501765,-5.47676 6.291282,-12.47901 8.529297,-19.04688 2.601939,3.83536 2.920203,8.94622 5.876953,12.38086 4.599452,0.15352 3.182713,-6.43945 4.402942,-9.33106 1.213953,-5.69496 1.7525,-12.85792 4.434949,-17.54394 3.159972,5.3605 2.146389,12.34065 5.154296,17.57813 2.297383,2.24417 5.398551,-1.14519 7.560547,-0.44141 2.097885,4.25699 -2.184173,11.1521 2.859375,13.83398 2.557461,0.5107 4.454152,-1.8433 6.103516,-3.40234 0.241563,21.55387 0.970127,43.87943 9.021484,64.1543 2.613785,6.99352 8.6409984,12.36003 16.1995059,13.29948 7.3535941,2.3573 14.7148611,4.68931 22.0739321,7.0306 24.836381,-27.32056 49.6718,-54.642 74.507812,-81.9629 0.51205,4.62216 4.127574,12.31924 9.863284,9.29688 4.84668,-2.93145 3.67609,-10.69302 8.21679,-13.43945 6.61556,2.84687 7.25344,11.79649 9.02344,17.91015 3.334,13.47199 10.04999,26.00732 14.63838,39.13286 3.65285,9.24748 7.30771,18.49416 10.95928,27.74214 29.19918,-17.40031 58.15678,-35.42595 87.50586,-52.4375 9.07311,1.04323 13.41424,10.87642 18.44917,17.35613 1.25698,2.80275 6.16549,8.80336 8.20708,3.48762 0.1755,-11.27308 -6.89745,-21.42622 -6.44727,-32.85937 -1.2467,-4.12654 4.64961,-10.76067 7.45313,-5.32617 4.83614,9.01193 2.633,21.32151 10.20703,28.86718 3.83643,3.14853 10.3881,-0.44491 8.86523,-5.46679 -0.54743,-5.59736 -5.59433,-10.83054 -4.21875,-16.37891 10.41274,-4.66517 20.70287,3.80682 28.09375,10.32813 13.73717,13.012 24.56972,28.7279 34.20508,44.83984 10.53767,-0.64854 21.07543,-1.29572 31.61328,-1.94141 11.60959,-16.61528 24.18159,-34.23801 42.53125,-44.03906 6.23621,-3.53486 16.78919,-3.3141 18.46094,5.34766 3.2765,10.93553 1.03157,22.58982 0.34318,33.45588 0.42971,7.06866 4.69984,-1.33291 4.49862,-4.47737 3.75781,-22.40626 8.60713,-45.15867 6.64453,-67.98047 -0.20899,-4.79429 -3.60385,-11.85829 -9.47266,-9.49414 -9.63241,5.35209 -15.44368,15.54067 -21.81416,24.17144 -11.57848,17.81569 -24.34163,37.89194 -46.10381,44.0063 -15.40346,5.14654 -30.17904,-5.11759 -40.85742,-15.22461 -17.12964,-15.47174 -32.61778,-34.56555 -54.72851,-43.07813 -16.26795,-4.68966 -31.55094,6.19635 -43.32032,16.15235 -16.77241,13.61497 -30.85738,31.88143 -51.65234,39.59375 -15.52703,5.14483 -33.62083,-3.54566 -39.64844,-18.71485 -8.43753,-17.65325 -7.34682,-37.78984 -12.42383,-56.31836 -1.23229,-5.47585 -7.85574,-7.68327 -12.3164,-4.43359 -15.455117,9.70498 -27.296631,24.10172 -40.923682,36.04676 C 56.65541,205.88353 42.805435,221.20267 25.539062,232.01367 17.694773,237.1698 5.5808624,239.08625 -0.60351562,230.39844 -11.800224,214.90746 -13.402329,195.02237 -19.414062,177.33789 c -3.418174,-12.18353 -9.31049,-24.31543 -20.298829,-31.36523 -4.852581,-4.40461 -12.883551,-5.0537 -17.21875,0.41992 -11.545889,13.79481 -24.333801,28.13505 -42.158203,33.38086 -20.720696,4.93582 -40.188916,-8.33332 -55.353516,-21.01172 -14.58477,-11.68059 -25.99547,-26.92519 -40.9043,-38.16016 -1.12623,-0.65013 -2.39078,-1.18129 -3.71484,-1.13086 z"
       id="path1398"
       inkscape:connector-curvature="0"
       transform="matrix(0.3918213,0,0,0.2609345,-137.48357,263.31111)"
       clip-path="url(#clipPath1528)"
       inkscape:export-filename="/mymirror/webDev/pengdive/images/arctic-scene-400.png"
       inkscape:export-xdpi="96"
       inkscape:export-ydpi="96" />
    <path
       clip-path="url(#clipPath1382)"
       inkscape:connector-curvature="0"
       id="path1322"
       d="m -214.69047,211.57737 c 0,0 65.0119,-92.22619 80.8869,-83.91071 15.875,8.31547 34.77381,51.40476 55.940477,54.42857 21.166666,3.02381 30.238094,9.07142 49.136903,-9.07143 18.8988092,-18.14286 59.720238,-72.57143 64.25595,-74.083335 4.535715,-1.511903 7.559524,-23.434521 23.434524,37.041665 15.875,60.47619 13.607143,81.64286 46.869046,85.42262 33.26191,3.77976 58.20833,8.31548 72.57143,-17.3869 14.3631,-25.70239 31.75,-49.13691 40.82143,-36.28572 9.07143,12.85119 48.38096,49.89286 75.59523,49.13691 27.2143,-0.75596 44.60118,-37.79762 65.76785,-53.67262 21.16667,-15.875 9.07145,-39.30952 41.57739,-1.51191 32.50594,37.79762 34.77382,41.57738 34.77382,41.57738 l 9.82736,211.66666 -659.94641,-13.60713 -45.35714,-113.39287 z"
       style="fill:#12afa3;fill-opacity:1;stroke:none;stroke-width:0.26458332px;stroke-linecap:butt;stroke-linejoin:miter;stroke-opacity:1;filter:url(#filter1795)"
       transform="matrix(0.3918213,0,0,0.25547447,-137.30536,264.669)"
       inkscape:export-filename="/mymirror/webDev/pengdive/images/arctic-scene-400.png"
       inkscape:export-xdpi="96"
       inkscape:export-ydpi="96" />
    <path
       style="fill:#c6f6ff;fill-opacity:1;stroke:none;stroke-width:0.26458332px;stroke-linecap:butt;stroke-linejoin:miter;stroke-opacity:1;filter:url(#filter1664)"
       d="m 175.75893,208.17558 c 3.27335,-11.42646 11.76685,-20.65814 18.89881,-30.23809 -0.38048,-0.12683 10.12127,-14.55509 17.72295,-14.3631 10.55827,0.26666 19.27933,16.88836 23.57766,21.16667 6.65842,6.90042 12.77125,10.90033 20.49849,15.66309 0,0 38.92842,21.31469 11.90625,13.44108 -27.7462,-8.08457 -45.24422,-22.281 -44.97917,-22.67858 0,0 19.78831,31.03071 5.39058,17.47076 -16.6848,-15.71395 -16.50289,-15.92226 -16.72986,-14.44695 0,0 -10.52684,39.60118 -8.43011,10.75035 2.42011,-33.30054 -23.70338,40.51274 -20.99112,13.11127 3.08928,-31.2104 -11.27925,34.48347 -9.51032,12.4241 1.43248,-17.86368 0.42891,-14.56184 2.64584,-22.3006 z"
       id="path1312"
       inkscape:connector-curvature="0"
       sodipodi:nodetypes="scaccscscssss"
       transform="matrix(0.40718571,0,0,0.26549234,-140.76905,262.67206)"
       inkscape:export-filename="/mymirror/webDev/pengdive/images/arctic-scene-400.png"
       inkscape:export-xdpi="96"
       inkscape:export-ydpi="96" />
    <path
       style="fill:#d5f6ff;fill-opacity:1;stroke:none;stroke-width:0.26458332px;stroke-linecap:butt;stroke-linejoin:miter;stroke-opacity:1;filter:url(#filter1660)"
       d="m 346.91584,175.92689 c 5.25951,-6.14077 9.97177,-11.48617 16.23859,-15.61234 0,0 6.14719,-6.68174 9.6217,-12.82894 3.47451,-6.1472 3.53936,-7.10556 7.28113,-7.10556 3.74179,0 19.99936,18.06361 19.99936,18.06361 l 27.30734,32.45033 c 17.64786,15.46289 5.77523,14.68712 -1.59017,8.55493 -2.22906,-1.85584 -7.90182,-1.27476 -18.85986,-19.98362 -10.95806,-18.70887 -6.48721,31.36089 -12.69138,27.9994 -0.53454,4.00904 -9.38264,-49.63036 -13.36347,-32.60688 -3.04232,13.01009 -11.31703,57.91594 -12.38614,23.43818 -1.06907,-34.47777 -17.58047,-18.17894 -23.69525,-13.54921 -9.16506,6.93921 2.13815,-8.8199 2.13815,-8.8199 z"
       id="path1314"
       inkscape:connector-curvature="0"
       sodipodi:nodetypes="ccssccsscscsc"
       transform="matrix(0.41289686,0,0,0.26921611,-145.50118,262.25436)"
       clip-path="url(#clipPath1779)"
       inkscape:export-filename="/mymirror/webDev/pengdive/images/arctic-scene-400.png"
       inkscape:export-xdpi="96"
       inkscape:export-ydpi="96" />
  </g>
</svg>
