<?xml version="1.0" encoding="UTF-8" standalone="no"?>
<!-- Created with Inkscape (http://www.inkscape.org/) -->

<svg
   xmlns:dc="http://purl.org/dc/elements/1.1/"
   xmlns:cc="http://creativecommons.org/ns#"
   xmlns:rdf="http://www.w3.org/1999/02/22-rdf-syntax-ns#"
   xmlns:svg="http://www.w3.org/2000/svg"
   xmlns="http://www.w3.org/2000/svg"
   xmlns:sodipodi="http://sodipodi.sourceforge.net/DTD/sodipodi-0.dtd"
   xmlns:inkscape="http://www.inkscape.org/namespaces/inkscape"
   width="600"
   height="801.49756"
   viewBox="0 0 158.75 212.0629"
   version="1.1"
   id="svg1744"
   inkscape:version="0.92.3 (2405546, 2018-03-11)"
   sodipodi:docname="order-form-bk.svg">
  <defs
     id="defs1738" />
  <sodipodi:namedview
     id="base"
     pagecolor="#ffffff"
     bordercolor="#666666"
     borderopacity="1.0"
     inkscape:pageopacity="0.0"
     inkscape:pageshadow="2"
     inkscape:zoom="0.24748737"
     inkscape:cx="0.35764947"
     inkscape:cy="712.26625"
     inkscape:document-units="mm"
     inkscape:current-layer="layer1"
     showgrid="false"
     fit-margin-top="0"
     fit-margin-left="0"
     fit-margin-right="0"
     fit-margin-bottom="0"
     showborder="true"
     inkscape:snap-global="false"
     units="px"
     inkscape:window-width="1920"
     inkscape:window-height="1025"
     inkscape:window-x="0"
     inkscape:window-y="27"
     inkscape:window-maximized="1" />
  <metadata
     id="metadata1741">
    <rdf:RDF>
      <cc:Work
         rdf:about="">
        <dc:format>image/svg+xml</dc:format>
        <dc:type
           rdf:resource="http://purl.org/dc/dcmitype/StillImage" />
        <dc:title></dc:title>
      </cc:Work>
    </rdf:RDF>
  </metadata>
  <g
     inkscape:label="Layer 1"
     inkscape:groupmode="layer"
     id="layer1"
     transform="translate(63.478073,-15.218509)">
    <g
       id="g2795"
       transform="matrix(0.71062913,0,0,0.71062913,-18.368705,65.768616)">
      <path
         style="fill:#000000;fill-opacity:1;stroke:#000000;stroke-width:2.56064844;stroke-miterlimit:4;stroke-dasharray:none"
         d="m 93.167593,76.457061 c 0.04531,6.060709 16.331297,11.55335 33.200297,11.427256 16.869,-0.126093 36.63769,-10.709496 31.4205,-13.794199 C 153.29544,71.433611 137.15693,72.903226 126.85124,70.66318 105.52422,66.027553 97.679111,54.770916 95.870331,61.38351"
         id="path1737"
         inkscape:connector-curvature="0"
         sodipodi:nodetypes="csssc" />
      <path
         sodipodi:nodetypes="csssc"
         inkscape:connector-curvature="0"
         id="path1739"
         d="m 15.461754,31.43438 c -1.421658,-5.891786 -18.5298187,-7.539034 -34.928656,-3.582094 -16.398827,3.956934 -33.244611,18.75655 -27.462861,20.574707 4.979157,1.565778 20.36125,-3.533488 30.906356,-3.694446 21.8224531,-0.333101 32.020754,8.84581 32.279219,1.995173"
         style="fill:#000000;fill-opacity:1;stroke:#000000;stroke-width:2.56064844;stroke-miterlimit:4;stroke-dasharray:none" />
      <rect
         transform="rotate(29.713389)"
         ry="0"
         y="159.83401"
         x="46.122368"
         height="41.068943"
         width="52.40823"
         id="rect1741"
         style="fill:#cccccc;fill-opacity:1;stroke:#cccccc;stroke-width:5.80010366;stroke-miterlimit:4;stroke-dasharray:none" />
      <rect
         transform="rotate(29.713389)"
         ry="12.851191"
         y="-86.104721"
         x="19.765556"
         height="247.95239"
         width="105.07738"
         id="rect1743"
         style="fill:#000000;fill-opacity:1;stroke:#000000;stroke-width:0.79374999;stroke-miterlimit:4;stroke-dasharray:none" />
      <rect
         transform="rotate(29.713389)"
         style="fill:#ffffff;fill-opacity:1;stroke:#e6e6e6;stroke-width:0.71233737;stroke-miterlimit:4;stroke-dasharray:none"
         id="rect1745"
         width="89.621834"
         height="234.13577"
         x="27.49334"
         y="-79.196419"
         ry="12.135086" />
      <g
         transform="rotate(33.131993,4.3698374,324.75636)"
         id="g1761">
        <circle
           style="fill:#000000;fill-opacity:1;stroke:#e6e6e6;stroke-width:0.23433195;stroke-miterlimit:4;stroke-dasharray:none"
           id="circle1747"
           cx="-169.30681"
           cy="-104.84937"
           r="11.828185"
           transform="rotate(-91.38704)" />
        <circle
           style="fill:#000000;fill-opacity:1;stroke:#e6e6e6;stroke-width:0.28609371;stroke-miterlimit:4;stroke-dasharray:none"
           id="circle1749"
           cx="-108.30158"
           cy="-120.10231"
           r="5.4494042"
           transform="rotate(-91.38704)" />
        <rect
           style="fill:#000000;fill-opacity:1;stroke:#e6e6e6;stroke-width:0.28609371;stroke-miterlimit:4;stroke-dasharray:none"
           id="rect1751"
           width="8.7190466"
           height="8.7190466"
           x="-100.83565"
           y="-88.61911"
           ry="0"
           transform="rotate(-91.38704)" />
        <path
           sodipodi:type="star"
           style="fill:#000000;fill-opacity:1;stroke:#e6e6e6;stroke-width:0.79374999;stroke-miterlimit:4;stroke-dasharray:none"
           id="path1753"
           sodipodi:sides="3"
           sodipodi:cx="195.79166"
           sodipodi:cy="64.922607"
           sodipodi:r1="16.648125"
           sodipodi:r2="8.3240614"
           sodipodi:arg1="0.045423279"
           sodipodi:arg2="1.0926208"
           inkscape:flatsided="false"
           inkscape:rounded="0"
           inkscape:randomized="0"
           d="m 212.42261,65.67856 -12.80055,6.634448 -12.80055,6.634451 0.65467,-14.402827 0.65467,-14.402828 12.14588,7.768378 z"
           inkscape:transform-center-x="-6.0681114"
           inkscape:transform-center-y="0.0054736463"
           transform="matrix(-0.03682707,-0.52462027,0.52462027,-0.03682707,-129.49705,181.35299)" />
        <path
           style="fill:none;stroke:#000000;stroke-width:3.07838798;stroke-linecap:butt;stroke-linejoin:miter;stroke-miterlimit:4;stroke-dasharray:none;stroke-opacity:1"
           d="m -101.0216,161.60185 -1.96783,-83.608666"
           id="path1755"
           inkscape:connector-curvature="0" />
        <path
           inkscape:connector-curvature="0"
           id="path1757"
           d="m -100.88734,154.97472 -16.85458,-26.70522 0.13079,-16.18702"
           style="fill:none;stroke:#000000;stroke-width:2.92921305;stroke-linecap:butt;stroke-linejoin:miter;stroke-miterlimit:4;stroke-dasharray:none;stroke-opacity:1"
           sodipodi:nodetypes="ccc" />
        <path
           style="fill:none;stroke:#000000;stroke-width:3.07838798;stroke-linecap:butt;stroke-linejoin:miter;stroke-miterlimit:4;stroke-dasharray:none;stroke-opacity:1"
           d="m -101.51449,140.1839 c 0.006,-0.0436 -0.0355,0.48179 -0.0253,0.43896 3.122191,-13.12481 5.274638,-14.95415 11.182716,-20.12355 4.066598,-3.55816 8.731567,-6.02979 8.408186,-17.84241"
           id="path1759"
           inkscape:connector-curvature="0"
           sodipodi:nodetypes="cssc" />
      </g>
      <path
         sodipodi:nodetypes="sssss"
         inkscape:connector-curvature="0"
         id="path1765"
         d="M 86.172625,24.997443 C 81.982599,32.339354 72.634097,34.894466 65.292178,30.704435 57.950248,26.514398 55.395145,17.165902 59.585171,9.8239911 63.775204,2.482068 79.387146,-4.4478594 83.779461,-2.036603 c 5.00036,2.74511631 6.583197,19.692123 2.393164,27.034046 z"
         style="fill:#ff7f2a;fill-opacity:1;stroke:none;stroke-width:1.20386255;stroke-miterlimit:4;stroke-dasharray:none" />
      <circle
         transform="rotate(29.713389)"
         r="9.0714283"
         cy="-44.549591"
         cx="47.827515"
         id="circle1767"
         style="fill:#000000;fill-opacity:1;stroke:none;stroke-width:1.26999998;stroke-miterlimit:4;stroke-dasharray:none" />
      <circle
         transform="rotate(29.713389)"
         style="fill:#000000;fill-opacity:1;stroke:none;stroke-width:1.26999998;stroke-miterlimit:4;stroke-dasharray:none"
         id="circle1769"
         cx="98.07415"
         cy="-44.81686"
         r="9.0714283" />
      <path
         sodipodi:nodetypes="ssccaccsss"
         inkscape:connector-curvature="0"
         id="path1771"
         d="m 74.911946,-53.659973 c -6.046806,-3.45091 -13.597063,-1.529303 -16.928687,4.308486 l -18.19764,31.886543 c 15.69318,-26.299827 28.478879,-24.059469 39.880876,-17.577955 9.870229,5.214584 2.923378,18.51711 10.244778,22.549275 7.806341,4.2992416 16.167277,-8.863942 26.127917,-3.637317 11.38491,6.5254433 20.37453,18.4728206 5.13481,43.305276 l 17.41887,-30.5219435 c 3.33162,-5.8377891 1.14573,-13.3158125 -4.90106,-16.7667135 z"
         style="fill:#000000;fill-opacity:1;stroke:#000000;stroke-width:0.7248401;stroke-miterlimit:4;stroke-dasharray:none" />
      <rect
         transform="rotate(29.713389)"
         style="fill:#000000;fill-opacity:1;stroke:#000000;stroke-width:1.64071643;stroke-miterlimit:4;stroke-dasharray:none"
         id="rect1773"
         width="8.1866655"
         height="21.037853"
         x="54.225822"
         y="172.87334"
         ry="0" />
      <rect
         transform="rotate(29.713389)"
         ry="0"
         y="172.87334"
         x="80.684135"
         height="21.037853"
         width="8.1866655"
         id="rect1775"
         style="fill:#000000;fill-opacity:1;stroke:#000000;stroke-width:1.64071643;stroke-miterlimit:4;stroke-dasharray:none" />
      <ellipse
         transform="rotate(29.713389)"
         ry="14.557683"
         rx="21.35848"
         cy="-45.850273"
         cx="48.315765"
         id="path2400"
         style="opacity:1;fill:#917c6f;fill-opacity:0.91237117;stroke:#000000;stroke-width:2.64583325;stroke-miterlimit:4;stroke-dasharray:none;stroke-opacity:1" />
      <ellipse
         transform="rotate(29.713389)"
         style="opacity:1;fill:#917c6f;fill-opacity:0.91237117;stroke:#000000;stroke-width:2.64583325;stroke-miterlimit:4;stroke-dasharray:none;stroke-opacity:1"
         id="ellipse2402"
         cx="94.434402"
         cy="-45.850273"
         rx="21.35848"
         ry="14.557683" />
      <rect
         transform="rotate(29.713389)"
         y="-64.408897"
         x="61.358719"
         height="2.2678571"
         width="20.788691"
         id="rect2414"
         style="opacity:1;fill:#ffffff;fill-opacity:0.91237117;stroke:#ffffff;stroke-width:2.1170001;stroke-miterlimit:4;stroke-dasharray:none;stroke-opacity:1" />
      <path
         sodipodi:nodetypes="cc"
         inkscape:connector-curvature="0"
         id="path2408"
         d="m 69.583389,-29.400228 c 17.105813,5.443195 30.895291,13.393419 41.878681,23.4649517"
         style="fill:none;stroke:#000000;stroke-width:2.11666656;stroke-linecap:butt;stroke-linejoin:miter;stroke-miterlimit:4;stroke-dasharray:none;stroke-opacity:1" />
      <path
         sodipodi:nodetypes="ssssss"
         inkscape:connector-curvature="0"
         id="path2418"
         d="M 150.45068,-6.9818059 C 140.74615,6.2118062 115.87357,-6.1460273 93.143113,-17.47742 84.657824,-21.707432 52.679311,-25.002947 45.302696,-28.219822 23.955191,-37.529276 19.650421,-51.63986 29.108624,-59.301803 c 6.459141,-5.23245 67.904392,-13.29736 87.887626,-9.872975 36.38884,6.23569 43.15898,48.999365 33.45443,62.1929721 z"
         style="opacity:1;fill:#1a1a1a;fill-opacity:1;stroke:#333333;stroke-width:2.25143719;stroke-miterlimit:4;stroke-dasharray:none;stroke-opacity:1" />
      <g
         transform="rotate(21.610035,19.679646,115.19469)"
         id="g2551">
        <path
           style="opacity:1;fill:#e6e6e6;fill-opacity:1;stroke:#00d4aa;stroke-width:0.80513418;stroke-miterlimit:4;stroke-dasharray:none;stroke-opacity:1"
           d="m 68.189666,-66.125425 a 10.853225,13.943878 0 0 0 -2.510539,8.91247 10.853225,13.943878 0 0 0 10.853255,13.943962 10.853225,13.943878 0 0 0 10.853056,-13.943962 10.853225,13.943878 0 0 0 -2.51899,-8.91247 z"
           id="path2421"
           inkscape:connector-curvature="0" />
        <g
           id="g1133"
           inkscape:export-filename="/home/monx/pendive_logo_parachute.png"
           inkscape:export-xdpi="96"
           inkscape:export-ydpi="96"
           transform="matrix(0.03198593,0,0,0.03198593,89.997612,-54.614515)">
          <path
             sodipodi:nodetypes="csssc"
             inkscape:connector-curvature="0"
             id="path1044"
             d="m -384.16874,112.9635 c -1.6856,5.82177 12.35663,15.73229 28.56058,20.4239 16.20394,4.69161 38.17037,0.18772 34.05002,-4.25717 -3.54838,-3.82788 -19.43548,-7.0234 -28.67385,-12.11041 -19.11825,-10.52725 -23.426,-23.554183 -27.04608,-17.732408"
             style="fill:#000000;fill-opacity:1;stroke:#000000;stroke-width:2.56064844;stroke-miterlimit:4;stroke-dasharray:none" />
          <path
             style="fill:#000000;fill-opacity:1;stroke:#000000;stroke-width:2.56064844;stroke-miterlimit:4;stroke-dasharray:none"
             d="m -461.83458,112.9635 c 1.6856,5.82177 -12.35663,15.73229 -28.56058,20.4239 -16.20394,4.69161 -38.17037,0.18772 -34.05002,-4.25717 3.54838,-3.82788 19.43548,-7.0234 28.67385,-12.11041 19.11825,-10.52725 23.426,-23.554183 27.04608,-17.732408"
             id="path1046"
             inkscape:connector-curvature="0"
             sodipodi:nodetypes="csssc" />
          <rect
             style="fill:#cccccc;fill-opacity:1;stroke:#cccccc;stroke-width:5.80010366;stroke-miterlimit:4;stroke-dasharray:none"
             id="rect1048"
             width="52.40823"
             height="41.068943"
             x="-450.71909"
             y="242.65143"
             ry="0" />
          <rect
             style="fill:#000000;fill-opacity:1;stroke:#000000;stroke-width:0.79374999;stroke-miterlimit:4;stroke-dasharray:none"
             id="rect1050"
             width="105.07738"
             height="247.95238"
             x="-477.07587"
             y="-3.2873106"
             ry="12.851191" />
          <rect
             ry="12.135086"
             y="3.6209917"
             x="-469.34811"
             height="234.13577"
             width="89.621826"
             id="rect1052"
             style="fill:#ffffff;fill-opacity:1;stroke:#e6e6e6;stroke-width:0.71233737;stroke-miterlimit:4;stroke-dasharray:none" />
          <g
             transform="rotate(3.4186039,-245.41292,162.8259)"
             id="g1111">
            <g
               transform="translate(-324.37349,42.763125)"
               id="g1068">
              <circle
                 style="fill:#000000;fill-opacity:1;stroke:#e6e6e6;stroke-width:0.23433195;stroke-miterlimit:4;stroke-dasharray:none"
                 id="circle1054"
                 cx="-169.30681"
                 cy="-104.84937"
                 r="11.828185"
                 transform="rotate(-91.38704)" />
              <circle
                 style="fill:#000000;fill-opacity:1;stroke:#e6e6e6;stroke-width:0.28609371;stroke-miterlimit:4;stroke-dasharray:none"
                 id="circle1056"
                 cx="-108.30158"
                 cy="-120.10231"
                 r="5.4494042"
                 transform="rotate(-91.38704)" />
              <rect
                 style="fill:#000000;fill-opacity:1;stroke:#e6e6e6;stroke-width:0.28609371;stroke-miterlimit:4;stroke-dasharray:none"
                 id="rect1058"
                 width="8.7190466"
                 height="8.7190466"
                 x="-100.83565"
                 y="-88.61911"
                 ry="0"
                 transform="rotate(-91.38704)" />
              <path
                 sodipodi:type="star"
                 style="fill:#000000;fill-opacity:1;stroke:#e6e6e6;stroke-width:0.79374999;stroke-miterlimit:4;stroke-dasharray:none"
                 id="path1060"
                 sodipodi:sides="3"
                 sodipodi:cx="195.79166"
                 sodipodi:cy="64.922607"
                 sodipodi:r1="16.648125"
                 sodipodi:r2="8.3240614"
                 sodipodi:arg1="0.045423279"
                 sodipodi:arg2="1.0926208"
                 inkscape:flatsided="false"
                 inkscape:rounded="0"
                 inkscape:randomized="0"
                 d="m 212.42261,65.67856 -12.80055,6.634448 -12.80055,6.634451 0.65467,-14.402827 0.65467,-14.402828 12.14588,7.768378 z"
                 inkscape:transform-center-x="-6.0681114"
                 inkscape:transform-center-y="0.0054736463"
                 transform="matrix(-0.03682707,-0.52462027,0.52462027,-0.03682707,-129.49705,181.35299)" />
              <path
                 style="fill:none;stroke:#000000;stroke-width:3.07838798;stroke-linecap:butt;stroke-linejoin:miter;stroke-miterlimit:4;stroke-dasharray:none;stroke-opacity:1"
                 d="m -101.0216,161.60185 -1.96783,-83.608666"
                 id="path1062"
                 inkscape:connector-curvature="0" />
              <path
                 inkscape:connector-curvature="0"
                 id="path1064"
                 d="m -100.88734,154.97472 -16.85458,-26.70522 0.13079,-16.18702"
                 style="fill:none;stroke:#000000;stroke-width:2.92921305;stroke-linecap:butt;stroke-linejoin:miter;stroke-miterlimit:4;stroke-dasharray:none;stroke-opacity:1"
                 sodipodi:nodetypes="ccc" />
              <path
                 style="fill:none;stroke:#000000;stroke-width:3.07838798;stroke-linecap:butt;stroke-linejoin:miter;stroke-miterlimit:4;stroke-dasharray:none;stroke-opacity:1"
                 d="m -101.51449,140.1839 c 0.006,-0.0436 -0.0355,0.48179 -0.0253,0.43896 3.122191,-13.12481 5.274638,-14.95415 11.182716,-20.12355 4.066598,-3.55816 8.731567,-6.02979 8.408186,-17.84241"
                 id="path1066"
                 inkscape:connector-curvature="0"
                 sodipodi:nodetypes="cssc" />
            </g>
          </g>
          <path
             style="fill:#ff7f2a;fill-opacity:1;stroke:none;stroke-width:1.20386255;stroke-miterlimit:4;stroke-dasharray:none"
             d="m -409.6089,61.815616 c 0,8.453401 -6.85285,15.306248 -15.30626,15.306248 -8.45342,0 -15.30626,-6.852847 -15.30626,-15.306248 0,-8.453413 10.12432,-22.210406 15.13428,-22.293294 5.70354,-0.09431 15.47824,13.839881 15.47824,22.293294 z"
             id="path1070"
             inkscape:connector-curvature="0"
             sodipodi:nodetypes="sssss" />
          <circle
             style="fill:#000000;fill-opacity:1;stroke:none;stroke-width:1.26999986;stroke-miterlimit:4;stroke-dasharray:none"
             id="circle1072"
             cx="-449.01395"
             cy="38.267815"
             r="9.0714283" />
          <circle
             r="9.0714283"
             cy="38.000546"
             cx="-398.76727"
             id="circle1074"
             style="fill:#000000;fill-opacity:1;stroke:none;stroke-width:1.26999986;stroke-miterlimit:4;stroke-dasharray:none" />
          <path
             style="fill:#000000;fill-opacity:1;stroke:#000000;stroke-width:0.7248401;stroke-miterlimit:4;stroke-dasharray:none"
             d="m -458.37644,-0.918098 c -6.96223,0 -12.56728,5.411318 -12.56728,12.132888 v 36.713837 c 0.59396,-30.620322 12.809,-35.011916 25.92445,-35.034152 11.15712,-0.363346 11.71722,14.633395 20.07456,14.506457 8.9109,-0.135345 9.64802,-15.711974 20.88963,-16.109675 13.12238,0.02439 26.85187,5.945061 25.92443,35.066183 V 11.21479 c 0,-6.72157 -5.60505,-12.132888 -12.56726,-12.132888 z"
             id="path1076"
             inkscape:connector-curvature="0"
             sodipodi:nodetypes="ssccaccsss" />
          <rect
             ry="0"
             y="255.69077"
             x="-442.61563"
             height="21.037853"
             width="8.1866655"
             id="rect1078"
             style="fill:#000000;fill-opacity:1;stroke:#000000;stroke-width:1.64071631;stroke-miterlimit:4;stroke-dasharray:none" />
          <rect
             style="fill:#000000;fill-opacity:1;stroke:#000000;stroke-width:1.64071631;stroke-miterlimit:4;stroke-dasharray:none"
             id="rect1080"
             width="8.1866655"
             height="21.037853"
             x="-416.15732"
             y="255.69077"
             ry="0" />
        </g>
        <g
           id="g891"
           transform="matrix(0.03198593,0,0,0.03198593,90.955093,-45.86048)"
           inkscape:export-filename="/home/monx/pendive_logo_parachute.png"
           inkscape:export-xdpi="96"
           inkscape:export-ydpi="96">
          <path
             inkscape:connector-curvature="0"
             id="path1735"
             d="m -456.92591,-552.19981 a 178.38708,171.25788 0 0 0 -177.67991,157.69219 45.346927,41.129805 0 0 1 41.8978,-25.43681 45.346927,41.129805 0 0 1 45.01712,36.60688 45.346927,41.129805 0 0 1 45.05124,-36.60688 45.346927,41.129805 0 0 1 45.01712,36.60688 45.346927,41.129805 0 0 1 45.05122,-36.60688 45.346927,41.129805 0 0 1 45.01749,36.60791 45.346927,41.129805 0 0 1 45.05087,-36.60791 45.346927,41.129805 0 0 1 43.46959,29.51448 178.38708,171.25788 0 0 0 -177.89254,-161.76986 z"
             style="fill:#000000;fill-opacity:1;stroke:#000000;stroke-width:2.94126606;stroke-miterlimit:4;stroke-dasharray:none" />
          <path
             sodipodi:nodetypes="cc"
             inkscape:connector-curvature="0"
             id="path1829"
             d="m -634.49011,-395.7673 c 34.86806,62.22525 83.66816,94.3473 132.62239,123.72328"
             style="fill:none;stroke:#000000;stroke-width:2.81099367;stroke-linecap:butt;stroke-linejoin:miter;stroke-miterlimit:4;stroke-dasharray:none;stroke-opacity:1" />
          <path
             sodipodi:nodetypes="cc"
             inkscape:transform-center-y="-7.10663"
             inkscape:transform-center-x="-23.752089"
             style="fill:none;stroke:#000000;stroke-width:2.54200172;stroke-linecap:butt;stroke-linejoin:miter;stroke-miterlimit:4;stroke-dasharray:none;stroke-opacity:1"
             d="m -547.66017,-383.45372 c 10.78828,49.39914 43.77891,71.7096 77.64703,117.15378"
             id="path1831"
             inkscape:connector-curvature="0" />
          <path
             inkscape:transform-center-y="5.7215233"
             inkscape:transform-center-x="24.123227"
             style="fill:none;stroke:#000000;stroke-width:2.54200172;stroke-linecap:butt;stroke-linejoin:miter;stroke-miterlimit:4;stroke-dasharray:none;stroke-opacity:1"
             d="m -458.4826,-420.22988 3.62699,161.5762"
             id="path1837"
             inkscape:connector-curvature="0" />
          <path
             inkscape:connector-curvature="0"
             id="path1839"
             d="m -367.60427,-383.45372 c -10.78828,49.39914 -43.77892,71.7096 -77.64703,117.15378"
             style="fill:none;stroke:#000000;stroke-width:2.54200172;stroke-linecap:butt;stroke-linejoin:miter;stroke-miterlimit:4;stroke-dasharray:none;stroke-opacity:1"
             inkscape:transform-center-x="23.752089"
             inkscape:transform-center-y="-7.10663"
             sodipodi:nodetypes="cc" />
          <path
             style="fill:none;stroke:#000000;stroke-width:2.81099367;stroke-linecap:butt;stroke-linejoin:miter;stroke-miterlimit:4;stroke-dasharray:none;stroke-opacity:1"
             d="m -278.93334,-390.95645 c -34.86805,62.22525 -83.66815,94.3473 -132.62238,123.72328"
             id="path1841"
             inkscape:connector-curvature="0"
             sodipodi:nodetypes="cc" />
        </g>
      </g>
      <path
         inkscape:connector-curvature="0"
         id="path2579"
         d="m 121.73904,-48.094196 a 5.7009024,36.720949 76.673645 0 0 -2.28086,-0.658494 6.6386601,42.811829 77.136885 0 1 -36.763574,10.965621 6.6386601,42.811829 77.136885 0 1 -28.519562,4.007941 5.7009024,36.720949 76.673645 0 0 -3.16219,2.719696 5.7009024,36.720949 76.673645 0 0 33.000745,-1.344621 5.7009024,36.720949 76.673645 0 0 38.314131,-14.248676 5.7009024,36.720949 76.673645 0 0 -0.58869,-1.441467 z"
         style="opacity:1;fill:#333333;fill-opacity:0.69072164;stroke:none;stroke-width:2.22942424;stroke-miterlimit:4;stroke-dasharray:none;stroke-opacity:1" />
    </g>
  </g>
</svg>
