<?xml version="1.0" encoding="UTF-8" standalone="no"?>
<!-- Created with Inkscape (http://www.inkscape.org/) -->

<svg
   xmlns:dc="http://purl.org/dc/elements/1.1/"
   xmlns:cc="http://creativecommons.org/ns#"
   xmlns:rdf="http://www.w3.org/1999/02/22-rdf-syntax-ns#"
   xmlns:svg="http://www.w3.org/2000/svg"
   xmlns="http://www.w3.org/2000/svg"
   xmlns:xlink="http://www.w3.org/1999/xlink"
   xmlns:sodipodi="http://sodipodi.sourceforge.net/DTD/sodipodi-0.dtd"
   xmlns:inkscape="http://www.inkscape.org/namespaces/inkscape"
   width="320.39536"
   height="63.747959"
   viewBox="0 0 84.771266 16.866649"
   version="1.1"
   id="svg8"
   inkscape:version="0.92.3 (2405546, 2018-03-11)"
   sodipodi:docname="cloud1.svg"
   inkscape:export-filename="/mymirror/webDev/pengdive/images/arctice-scene.png"
   inkscape:export-xdpi="96"
   inkscape:export-ydpi="96">
  <defs
     id="defs2">
    <linearGradient
       id="linearGradient1320"
       inkscape:collect="always">
      <stop
         id="stop1316"
         offset="0"
         style="stop-color:#12afa3;stop-opacity:1" />
      <stop
         id="stop1318"
         offset="1"
         style="stop-color:#80e5ff;stop-opacity:0;" />
    </linearGradient>
    <linearGradient
       inkscape:collect="always"
       id="linearGradient982">
      <stop
         style="stop-color:#0088aa;stop-opacity:1"
         offset="0"
         id="stop978" />
      <stop
         style="stop-color:#80e5ff;stop-opacity:0;"
         offset="1"
         id="stop980" />
    </linearGradient>
    <clipPath
       clipPathUnits="userSpaceOnUse"
       id="clipPath865">
      <rect
         style="opacity:1;fill:#80e5ff;fill-opacity:0.53191457;stroke:none;stroke-width:3.58112192;stroke-miterlimit:4;stroke-dasharray:none;stroke-opacity:1"
         id="rect867"
         width="173.86905"
         height="104.32143"
         x="-516.31543"
         y="-61.321438" />
    </clipPath>
    <clipPath
       clipPathUnits="userSpaceOnUse"
       id="clipPath869">
      <rect
         style="opacity:1;fill:#80e5ff;fill-opacity:0.53191457;stroke:none;stroke-width:3.58112192;stroke-miterlimit:4;stroke-dasharray:none;stroke-opacity:1"
         id="rect871"
         width="173.86905"
         height="104.32143"
         x="-516.31543"
         y="-61.321438" />
    </clipPath>
    <clipPath
       clipPathUnits="userSpaceOnUse"
       id="clipPath873">
      <rect
         style="opacity:1;fill:#80e5ff;fill-opacity:0.53191457;stroke:none;stroke-width:3.58112192;stroke-miterlimit:4;stroke-dasharray:none;stroke-opacity:1"
         id="rect875"
         width="173.86905"
         height="104.32143"
         x="-516.31543"
         y="-61.321438" />
    </clipPath>
    <clipPath
       clipPathUnits="userSpaceOnUse"
       id="clipPath877">
      <rect
         style="opacity:1;fill:#80e5ff;fill-opacity:0.53191457;stroke:none;stroke-width:3.58112192;stroke-miterlimit:4;stroke-dasharray:none;stroke-opacity:1"
         id="rect879"
         width="173.86905"
         height="104.32143"
         x="-516.31543"
         y="-61.321438" />
    </clipPath>
    <clipPath
       clipPathUnits="userSpaceOnUse"
       id="clipPath881">
      <rect
         style="opacity:1;fill:#80e5ff;fill-opacity:0.53191457;stroke:none;stroke-width:3.58112192;stroke-miterlimit:4;stroke-dasharray:none;stroke-opacity:1"
         id="rect883"
         width="173.86905"
         height="104.32143"
         x="-516.31543"
         y="-61.321438" />
    </clipPath>
    <clipPath
       clipPathUnits="userSpaceOnUse"
       id="clipPath885">
      <rect
         style="opacity:1;fill:#80e5ff;fill-opacity:0.53191457;stroke:none;stroke-width:3.58112192;stroke-miterlimit:4;stroke-dasharray:none;stroke-opacity:1"
         id="rect887"
         width="173.86905"
         height="104.32143"
         x="-516.31543"
         y="-61.321438" />
    </clipPath>
    <clipPath
       clipPathUnits="userSpaceOnUse"
       id="clipPath889">
      <rect
         style="opacity:1;fill:#80e5ff;fill-opacity:0.53191457;stroke:none;stroke-width:3.58112192;stroke-miterlimit:4;stroke-dasharray:none;stroke-opacity:1"
         id="rect891"
         width="173.86905"
         height="104.32143"
         x="-516.31543"
         y="-61.321438" />
    </clipPath>
    <clipPath
       clipPathUnits="userSpaceOnUse"
       id="clipPath893">
      <rect
         style="opacity:1;fill:#80e5ff;fill-opacity:0.53191457;stroke:none;stroke-width:3.58112192;stroke-miterlimit:4;stroke-dasharray:none;stroke-opacity:1"
         id="rect895"
         width="173.86905"
         height="104.32143"
         x="-516.31543"
         y="-61.321438" />
    </clipPath>
    <clipPath
       clipPathUnits="userSpaceOnUse"
       id="clipPath897">
      <rect
         style="opacity:1;fill:#80e5ff;fill-opacity:0.53191457;stroke:none;stroke-width:3.58112192;stroke-miterlimit:4;stroke-dasharray:none;stroke-opacity:1"
         id="rect899"
         width="173.86905"
         height="104.32143"
         x="-516.31543"
         y="-61.321438" />
    </clipPath>
    <clipPath
       clipPathUnits="userSpaceOnUse"
       id="clipPath901">
      <rect
         style="opacity:1;fill:#80e5ff;fill-opacity:0.53191457;stroke:none;stroke-width:3.58112192;stroke-miterlimit:4;stroke-dasharray:none;stroke-opacity:1"
         id="rect903"
         width="173.86905"
         height="104.32143"
         x="-516.31543"
         y="-61.321438" />
    </clipPath>
    <clipPath
       clipPathUnits="userSpaceOnUse"
       id="clipPath905">
      <rect
         style="opacity:1;fill:#80e5ff;fill-opacity:0.53191457;stroke:none;stroke-width:3.58112192;stroke-miterlimit:4;stroke-dasharray:none;stroke-opacity:1"
         id="rect907"
         width="173.86905"
         height="104.32143"
         x="-516.31543"
         y="-61.321438" />
    </clipPath>
    <clipPath
       clipPathUnits="userSpaceOnUse"
       id="clipPath909">
      <rect
         style="opacity:1;fill:#80e5ff;fill-opacity:0.53191457;stroke:none;stroke-width:3.58112192;stroke-miterlimit:4;stroke-dasharray:none;stroke-opacity:1"
         id="rect911"
         width="173.86905"
         height="104.32143"
         x="-516.31543"
         y="-61.321438" />
    </clipPath>
    <clipPath
       clipPathUnits="userSpaceOnUse"
       id="clipPath970">
      <rect
         style="opacity:1;fill:#0000ff;fill-opacity:0.53191457;stroke:none;stroke-width:2.64600015;stroke-miterlimit:4;stroke-dasharray:none;stroke-opacity:1"
         id="rect972"
         width="164.41965"
         height="41.577381"
         x="-519.15033"
         y="-18.988106" />
    </clipPath>
    <clipPath
       clipPathUnits="userSpaceOnUse"
       id="clipPath1019">
      <rect
         style="opacity:1;fill:#d5f6ff;fill-opacity:0.53191457;stroke:none;stroke-width:2.64600015;stroke-miterlimit:4;stroke-dasharray:none;stroke-opacity:1"
         id="rect1021"
         width="257.77975"
         height="76.351196"
         x="-557.1369"
         y="-82.488098" />
    </clipPath>
    <clipPath
       clipPathUnits="userSpaceOnUse"
       id="clipPath1075">
      <rect
         style="opacity:1;fill:#5fd3bc;fill-opacity:0.33333333;stroke:none;stroke-width:2.64600015;stroke-miterlimit:4;stroke-dasharray:none;stroke-opacity:1"
         id="rect1077"
         width="236.6131"
         height="80.886909"
         x="-528.41071"
         y="-24.27977" />
    </clipPath>
    <clipPath
       clipPathUnits="userSpaceOnUse"
       id="clipPath1276">
      <rect
         y="-49.226204"
         x="-214.69048"
         height="414.26187"
         width="651.63098"
         id="rect1278"
         style="opacity:1;fill:#916f6f;fill-opacity:1;stroke:none;stroke-width:2.64600015;stroke-miterlimit:4;stroke-dasharray:none;stroke-opacity:1" />
    </clipPath>
    <clipPath
       clipPathUnits="userSpaceOnUse"
       id="clipPath1284">
      <rect
         y="-49.226204"
         x="-214.69048"
         height="414.26187"
         width="651.63098"
         id="rect1286"
         style="opacity:1;fill:url(#linearGradient1288);fill-opacity:1;stroke:none;stroke-width:2.64600015;stroke-miterlimit:4;stroke-dasharray:none;stroke-opacity:1" />
    </clipPath>
    <linearGradient
       inkscape:collect="always"
       xlink:href="#linearGradient982"
       id="linearGradient1288"
       gradientUnits="userSpaceOnUse"
       gradientTransform="translate(1.5119048,-21.166668)"
       x1="120.19643"
       y1="-16.720247"
       x2="128.5119"
       y2="280.36905" />
    <clipPath
       clipPathUnits="userSpaceOnUse"
       id="clipPath1298">
      <rect
         y="-34.107155"
         x="-265.14688"
         height="414.26187"
         width="510.64175"
         id="rect1300"
         style="opacity:1;fill:url(#linearGradient1302);fill-opacity:1;stroke:none;stroke-width:2.34232497;stroke-miterlimit:4;stroke-dasharray:none;stroke-opacity:1"
         transform="scale(-1,1)" />
    </clipPath>
    <linearGradient
       inkscape:collect="always"
       xlink:href="#linearGradient982"
       id="linearGradient1302"
       gradientUnits="userSpaceOnUse"
       gradientTransform="matrix(0.78363641,0,0,0.99999999,-95.72283,-6.047619)"
       x1="120.19643"
       y1="-16.720247"
       x2="128.5119"
       y2="280.36905" />
    <clipPath
       clipPathUnits="userSpaceOnUse"
       id="clipPath1331">
      <path
         style="fill:none;stroke:#000000;stroke-width:0.26458332px;stroke-linecap:butt;stroke-linejoin:miter;stroke-opacity:1"
         d="m 182.70794,196.41571 c 0,0 -21.81168,33.76689 -34.10608,42.85406 -12.2944,9.08717 -41.69405,24.58879 -51.315754,36.34867 -9.6217,11.75986 -11.225321,39.02133 -11.225321,39.02133 l 15.501635,51.85029 372.53009,8.64428 -25.61426,-201.61287 -58.26477,-54.523 -192.96857,28.33057 z"
         id="path1333"
         inkscape:connector-curvature="0" />
    </clipPath>
    <clipPath
       clipPathUnits="userSpaceOnUse"
       id="clipPath1344">
      <path
         style="fill:none;stroke:#000000;stroke-width:0.26458332px;stroke-linecap:butt;stroke-linejoin:miter;stroke-opacity:1"
         d="M -236.8008,116.86033 65.748305,88.529758 76.439086,204.52474 99.424263,231.25169 c 0,0 11.759857,10.69078 37.417727,25.12334 25.65788,14.43255 44.90129,37.95226 42.76313,47.57396 -2.13816,9.62171 13.36348,37.95226 10.15625,42.76313 -3.20724,4.81084 -28.86512,35.81413 -28.86512,35.81413 l -390.74804,-2.13818 z"
         id="path1346"
         inkscape:connector-curvature="0"
         sodipodi:nodetypes="ccccsscccc" />
    </clipPath>
    <clipPath
       clipPathUnits="userSpaceOnUse"
       id="clipPath1352">
      <rect
         y="-49.226204"
         x="-214.69048"
         height="414.26187"
         width="651.63098"
         id="rect1354"
         style="opacity:1;fill:url(#linearGradient1356);fill-opacity:1;stroke:none;stroke-width:2.64600015;stroke-miterlimit:4;stroke-dasharray:none;stroke-opacity:1" />
    </clipPath>
    <linearGradient
       inkscape:collect="always"
       xlink:href="#linearGradient1320"
       id="linearGradient1356"
       gradientUnits="userSpaceOnUse"
       gradientTransform="translate(1.5119048,-21.166668)"
       x1="120.19643"
       y1="54.373447"
       x2="120.19643"
       y2="325.27032" />
    <clipPath
       clipPathUnits="userSpaceOnUse"
       id="clipPath1360">
      <path
         style="fill:none;stroke:#000000;stroke-width:0.26458332px;stroke-linecap:butt;stroke-linejoin:miter;stroke-opacity:1"
         d="m -248.1938,365.62555 17.10525,-292.927393 305.756332,-3.207231 8.55263,144.325544 c 0,0 3.741772,12.82893 32.606878,39.02136 28.86511,26.1924 55.59206,44.36674 64.67922,57.19567 9.08717,12.82893 16.03617,58.79931 14.43256,65.21376 -1.60362,6.41448 -31.00327,9.6217 -31.00327,9.6217 l -409.45691,-17.63977 z"
         id="path1362"
         inkscape:connector-curvature="0" />
    </clipPath>
    <clipPath
       clipPathUnits="userSpaceOnUse"
       id="clipPath1368">
      <path
         style="fill:#484537;fill-opacity:1;stroke:none;stroke-width:0.26458332px;stroke-linecap:butt;stroke-linejoin:miter;stroke-opacity:1"
         d="m -214.69047,211.57737 c 0,0 65.0119,-92.22619 80.8869,-83.91071 15.875,8.31547 34.77381,51.40476 55.940477,54.42857 21.166666,3.02381 30.238094,9.07142 49.136903,-9.07143 18.8988092,-18.14286 59.720238,-72.57143 64.25595,-74.083335 4.535715,-1.511903 7.559524,-23.434521 23.434524,37.041665 15.875,60.47619 13.607143,81.64286 46.869046,85.42262 33.26191,3.77976 58.20833,8.31548 72.57143,-17.3869 14.3631,-25.70239 31.75,-49.13691 40.82143,-36.28572 9.07143,12.85119 48.38096,49.89286 75.59523,49.13691 27.2143,-0.75596 44.60118,-37.79762 65.76785,-53.67262 21.16667,-15.875 9.07145,-39.30952 41.57739,-1.51191 32.50594,37.79762 34.77382,41.57738 34.77382,41.57738 l 9.82736,211.66666 -659.94641,-13.60713 -45.35714,-113.39287 z"
         id="path1370"
         inkscape:connector-curvature="0"
         clip-path="url(#clipPath1360)" />
    </clipPath>
    <clipPath
       clipPathUnits="userSpaceOnUse"
       id="clipPath1382">
      <rect
         y="-49.226204"
         x="-214.69048"
         height="414.26187"
         width="651.63098"
         id="rect1384"
         style="opacity:1;fill:#aca793;fill-opacity:1;stroke:none;stroke-width:2.64600015;stroke-miterlimit:4;stroke-dasharray:none;stroke-opacity:1" />
    </clipPath>
    <clipPath
       clipPathUnits="userSpaceOnUse"
       id="clipPath1394">
      <rect
         y="-49.226204"
         x="-214.69048"
         height="414.26187"
         width="651.63098"
         id="rect1396"
         style="opacity:1;fill:#00ff00;fill-opacity:1;stroke:none;stroke-width:2.64600015;stroke-miterlimit:4;stroke-dasharray:none;stroke-opacity:1" />
    </clipPath>
    <clipPath
       clipPathUnits="userSpaceOnUse"
       id="clipPath1528">
      <rect
         y="-42.99221"
         x="-214.23569"
         height="405.59348"
         width="651.63098"
         id="rect1530"
         style="opacity:1;fill:#ff0000;fill-opacity:1;stroke:none;stroke-width:2.61817002;stroke-miterlimit:4;stroke-dasharray:none;stroke-opacity:1" />
    </clipPath>
    <clipPath
       clipPathUnits="userSpaceOnUse"
       id="clipPath1672">
      <rect
         y="-49.226204"
         x="-214.69048"
         height="414.26187"
         width="651.63098"
         id="rect1674"
         style="opacity:1;fill:#ff0000;fill-opacity:1;stroke:none;stroke-width:2.64600015;stroke-miterlimit:4;stroke-dasharray:none;stroke-opacity:1" />
    </clipPath>
    <clipPath
       clipPathUnits="userSpaceOnUse"
       id="clipPath1682">
      <rect
         y="154.71684"
         x="-92.571098"
         height="211.1279"
         width="529.51154"
         id="rect1684"
         style="opacity:1;fill:#005544;fill-opacity:1;stroke:none;stroke-width:1.70279384;stroke-miterlimit:4;stroke-dasharray:none;stroke-opacity:1" />
    </clipPath>
    <clipPath
       clipPathUnits="userSpaceOnUse"
       id="clipPath1688">
      <rect
         y="-47.638702"
         x="-214.69048"
         height="414.26187"
         width="529.51154"
         id="rect1690"
         style="opacity:1;fill:#ff0000;fill-opacity:1;stroke:none;stroke-width:2.38521051;stroke-miterlimit:4;stroke-dasharray:none;stroke-opacity:1" />
    </clipPath>
    <clipPath
       clipPathUnits="userSpaceOnUse"
       id="clipPath1779">
      <rect
         style="opacity:1;fill:#ff0000;fill-opacity:0.55;stroke:none;stroke-width:13.25259304;stroke-miterlimit:4;stroke-dasharray:none;stroke-opacity:1"
         id="rect1781"
         width="116.58762"
         height="311.33252"
         x="317.53549"
         y="5.8180737" />
    </clipPath>
    <filter
       inkscape:collect="always"
       style="color-interpolation-filters:sRGB"
       id="filter895"
       x="-0.0027699966"
       width="1.00554"
       y="-0.0073859574"
       height="1.0147719">
      <feGaussianBlur
         inkscape:collect="always"
         stdDeviation="0.24690377"
         id="feGaussianBlur897" />
    </filter>
  </defs>
  <sodipodi:namedview
     id="base"
     pagecolor="#ffffff"
     bordercolor="#666666"
     borderopacity="1.0"
     inkscape:pageopacity="0.0"
     inkscape:pageshadow="2"
     inkscape:zoom="1.4142136"
     inkscape:cx="237.03275"
     inkscape:cy="-24.893673"
     inkscape:document-units="px"
     inkscape:current-layer="layer1"
     showgrid="false"
     showborder="true"
     units="px"
     inkscape:snap-global="false"
     inkscape:window-width="1024"
     inkscape:window-height="1252"
     inkscape:window-x="1920"
     inkscape:window-y="0"
     inkscape:window-maximized="1"
     fit-margin-top="0"
     fit-margin-left="0"
     fit-margin-right="0"
     fit-margin-bottom="0"
     showguides="true"
     inkscape:guide-bbox="true"
     inkscape:pagecheckerboard="true" />
  <metadata
     id="metadata5">
    <rdf:RDF>
      <cc:Work
         rdf:about="">
        <dc:format>image/svg+xml</dc:format>
        <dc:type
           rdf:resource="http://purl.org/dc/dcmitype/StillImage" />
        <dc:title />
      </cc:Work>
    </rdf:RDF>
  </metadata>
  <g
     inkscape:label="Layer 1"
     inkscape:groupmode="layer"
     id="layer1"
     transform="translate(268.97875,-242.3635)">
    <ellipse
       style="opacity:1;fill:#80e5ff;fill-opacity:0.53191457;stroke:none;stroke-width:2.64600015;stroke-miterlimit:4;stroke-dasharray:none;stroke-opacity:1"
       id="path841"
       cx="-462.26486"
       cy="52.82737"
       rx="7.9375"
       ry="1.5119048"
       clip-path="url(#clipPath865)" />
    <path
       id="path1068"
       style="opacity:1;fill:#a9e6eb;fill-opacity:1;stroke:none;stroke-width:2.64600015;stroke-miterlimit:4;stroke-dasharray:none;stroke-opacity:1;filter:url(#filter895)"
       d="m -372.68455,33.172611 c 0,10.228774 -11.50735,18.520834 -25.70238,18.520834 -14.19503,0 -25.70238,-8.29206 -25.70238,-18.520834 0,-10.228774 11.50735,-18.520834 25.70238,-18.520834 14.19503,0 25.70238,8.29206 25.70238,18.520834 z m 4e-5,9.260418 c 0,5.114385 -15.06108,9.260414 -33.63986,9.260415 -18.57879,10e-7 -33.63987,-4.146029 -33.63987,-9.260415 0,-5.114386 15.06108,-9.260416 33.63987,-9.260415 18.57878,10e-7 33.63986,4.14603 33.63986,9.260415 z m 64.6339,11.528271 c -5.22682,6.752742 -8.34271,12.473212 -20.03273,12.473214 -11.69003,1e-6 -21.16667,-5.584447 -21.16667,-12.473214 0,-6.888767 9.47664,-12.473216 21.16667,-12.473214 11.69002,2e-6 27.36143,3.00498 20.03273,12.473214 z m -21.54464,-2.645832 c 0,11.272527 -12.5227,20.410716 -27.97024,20.410715 -15.44754,10e-7 -27.97024,-9.138188 -27.97024,-20.410715 0,-11.272527 12.5227,-20.410716 27.97024,-20.410715 15.44754,-1e-6 27.97024,9.138188 27.97024,20.410715 z m -43.08928,0.377975 c 0,6.471265 -12.01502,11.717262 -26.83631,11.717262 -14.82129,0 -26.83631,-5.245997 -26.83631,-11.717262 0,-6.471265 12.01503,-11.717261 26.83631,-11.717261 14.82128,0 26.83631,5.245996 26.83631,11.717261 z m -50.64877,0 c 0,8.97627 -13.70728,16.252975 -30.61607,16.252976 -16.90879,-1e-6 -30.61607,-7.276706 -30.61607,-16.252976 0,-8.97627 13.70728,-16.252974 30.61607,-16.252975 16.90879,10e-7 30.61607,7.276705 30.61607,16.252975 z m 90.71426,-22.300596 c 0,3.340008 -8.46129,6.047619 -18.89881,6.047619 -10.43752,0 -18.89881,-2.707611 -18.89881,-6.047619 0,-3.340008 8.46129,-6.047619 18.89881,-6.047619 10.43752,0 18.89881,2.707611 18.89881,6.047619 z m 23.81251,42.711309 c 0,3.131257 -19.3658,-10.205358 -34.39583,-10.205357 -15.03004,1e-6 -27.21429,-2.538385 -27.21429,-5.669643 0,-3.131257 12.18426,-5.669643 27.21429,-5.669642 15.03003,10e-7 34.39583,18.413385 34.39583,21.544642 z M -356.8095,46.0238 c 0,7.097516 -12.69193,12.851189 -28.34821,12.85119 -15.65629,1e-6 -28.34822,-5.753673 -28.34822,-12.85119 0,-7.097518 12.69193,-12.851192 28.34822,-12.851191 15.65628,10e-7 28.34821,5.753675 28.34821,12.851191 z m -45.35717,-4.157738 c 0,10.646275 -11.1689,19.276786 -24.94643,19.276785 -13.77753,10e-7 -24.94643,-8.63051 -24.94643,-19.276785 0,-10.646275 11.1689,-19.276786 24.94643,-19.276785 13.77753,-10e-7 24.94643,8.63051 24.94643,19.276785 z m -66.5238,-1.133926 c 0,11.272526 -11.50735,20.410715 -25.70238,20.410715 -14.19503,0 -25.70238,-9.138189 -25.70238,-20.410715 0,-11.272526 11.50735,-20.410715 25.70238,-20.410715 14.19503,0 25.70238,9.138189 25.70238,20.410715 z m 28.72621,-7.559525 c 0,9.185023 -11.33813,16.630954 -25.32441,16.630953 -13.98628,-2e-6 -25.3244,-7.445933 -25.3244,-16.630953 0,-9.18502 11.33812,-16.630951 25.3244,-16.630953 13.98628,-1e-6 25.32441,7.44593 25.32441,16.630953 z m 123.97615,6.047615 c 0,6.262513 -12.5227,11.339284 -27.97023,11.339286 -15.44754,0 -27.97024,-5.076771 -27.97024,-11.339286 0,-6.262515 12.5227,-11.339286 27.97024,-11.339286 15.44753,2e-6 27.97023,5.076773 27.97023,11.339286 z m -43.08925,-16.630951 c 0,9.602523 -10.66122,17.386906 -23.8125,17.386906 -13.15128,0 -23.8125,-7.784383 -23.8125,-17.386906 0,-9.602523 10.66122,-17.3869053 23.8125,-17.3869053 13.15128,0 23.8125,7.7843823 23.8125,17.3869053 z m -38.55359,-8.315474 c 0,12.107529 -6.76903,21.922619 -15.11905,21.922617 -8.35002,2e-6 -15.11905,-9.815088 -15.11905,-21.922617 0,-12.1075288 6.76903,-21.9226195 15.11905,-21.9226171 8.35002,-2.4e-6 15.11905,9.8150883 15.11905,21.9226171 z m -26.45834,0.377976 c 0,10.646274 -10.66122,19.276785 -23.8125,19.276785 -13.15128,0 -23.8125,-8.630511 -23.8125,-19.276785 0,-10.6462742 10.66122,-19.2767846 23.8125,-19.2767846 13.15128,0 23.8125,8.6305104 23.8125,19.2767846 z"
       clip-path="url(#clipPath1075)"
       inkscape:connector-curvature="0"
       transform="matrix(0.38983553,0,0,0.25547447,-65.53912,244.76847)"
       sodipodi:nodetypes="ssssssssssssssssssssssssssssssssssssssssssssssssssssssssssssssssssssssssssssssss"
       inkscape:export-filename="/mymirror/webDev/pengdive/images/arctic-scene-400.png"
       inkscape:export-xdpi="96"
       inkscape:export-ydpi="96" />
  </g>
</svg>
